[
  {
    "493405": 1,
    "498381": "NaN",
    "1219827": 0.961604852,
    "1293847": 1,
    "1691916": "NaN",
    "1730768": "NaN",
    "1753383": "NaN",
    "2072233": 1,
    "2398241": "NaN",
    "2568862": 1,
    "2582576": "NaN",
    "2763304": 0.981362683,
    "2771200": 0.904915715,
    "3171832": "NaN",
    "3315342": 0.966956772,
    "3401882": 1,
    "3405236": "NaN",
    "3462710": "NaN",
    "3717490": 0.998530965,
    "3731562": 0.988896348,
    "3874544": "NaN",
    "3896198": 0.999905754,
    "3922818": "NaN",
    "4030600": "NaN",
    "4116284": 0.932568098,
    "4217392": 1,
    "4287320": "NaN",
    "4425200": 0.964293976,
    "4465564": "NaN",
    "4481414": "NaN",
    "4581576": "NaN",
    "4630562": 0.994237018,
    "4849438": "NaN",
    "5052448": 0.894125831,
    "5155780": "NaN",
    "5442430": 0.971317877,
    "5460276": "NaN",
    "5607714": "NaN",
    "5710514": "NaN",
    "5982852": "NaN",
    "movieId": 493405
  },
  {
    "493405": "NaN",
    "498381": 1,
    "1219827": 0.862453283,
    "1293847": 0.847303949,
    "1691916": 0.928476691,
    "1730768": "NaN",
    "1753383": 0.480011415,
    "2072233": 0.912302744,
    "2398241": 0.980137906,
    "2568862": 0.969071079,
    "2582576": 1,
    "2763304": 0.987414217,
    "2771200": 0.914234368,
    "3171832": "NaN",
    "3315342": 0.916567516,
    "3401882": 0.96343524,
    "3405236": 0.950357402,
    "3462710": 0.986016014,
    "3717490": 0.945862866,
    "3731562": 0.913749867,
    "3874544": 0.922800883,
    "3896198": 0.934487735,
    "3922818": 1,
    "4030600": 0.956018558,
    "4116284": 0.969900958,
    "4217392": 0.979804059,
    "4287320": 0.988571053,
    "4425200": 0.930295452,
    "4465564": 0.902575971,
    "4481414": "NaN",
    "4581576": 0.990373372,
    "4630562": 0.94720902,
    "4849438": "NaN",
    "5052448": 0.909959536,
    "5155780": 1,
    "5442430": 0.932492959,
    "5460276": "NaN",
    "5607714": "NaN",
    "5710514": 0.903737839,
    "5982852": "NaN",
    "movieId": 498381
  },
  {
    "493405": 0.961604852,
    "498381": 0.862453283,
    "1219827": 1,
    "1293847": 0.972252979,
    "1691916": 0.986469232,
    "1730768": 0.967927492,
    "1753383": 0.991967741,
    "2072233": 0.959785966,
    "2398241": 0.901700096,
    "2568862": 0.978950449,
    "2582576": 1,
    "2763304": 0.962892732,
    "2771200": 0.935729098,
    "3171832": 0.998868138,
    "3315342": 0.969611486,
    "3401882": 0.99611649,
    "3405236": 1,
    "3462710": 0.905821627,
    "3717490": 0.960144512,
    "3731562": 0.971822747,
    "3874544": 0.962501175,
    "3896198": 0.977729309,
    "3922818": 0.981106988,
    "4030600": 1,
    "4116284": 0.954905566,
    "4217392": "NaN",
    "4287320": 0.97531982,
    "4425200": 0.97483227,
    "4465564": 0.912661078,
    "4481414": "NaN",
    "4581576": 0.954275175,
    "4630562": 0.961744255,
    "4849438": "NaN",
    "5052448": 0.97720806,
    "5155780": 0.967221163,
    "5442430": 0.968417453,
    "5460276": "NaN",
    "5607714": 0.992157222,
    "5710514": 0.978278785,
    "5982852": "NaN",
    "movieId": 1219827
  },
  {
    "493405": 1,
    "498381": 0.847303949,
    "1219827": 0.972252979,
    "1293847": 1,
    "1691916": "NaN",
    "1730768": "NaN",
    "1753383": 1,
    "2072233": 0.903696114,
    "2398241": 0.823687768,
    "2568862": 0.914084931,
    "2582576": 0.995893206,
    "2763304": 0.937021091,
    "2771200": 0.921112381,
    "3171832": 0.824441009,
    "3315342": 0.938561288,
    "3401882": 0.877777778,
    "3405236": 0.935376561,
    "3462710": 0.95292578,
    "3717490": 0.98699796,
    "3731562": 0.950477213,
    "3874544": 0.97547566,
    "3896198": 0.966830439,
    "3922818": 0.74753193,
    "4030600": "NaN",
    "4116284": 0.964547863,
    "4217392": 0.911684612,
    "4287320": 0.976647389,
    "4425200": 0.937772689,
    "4465564": 0.970764227,
    "4481414": "NaN",
    "4581576": 0.922033236,
    "4630562": 0.953914697,
    "4849438": 1,
    "5052448": 0.955757043,
    "5155780": "NaN",
    "5442430": 0.922473083,
    "5460276": 0.974633979,
    "5607714": "NaN",
    "5710514": 1,
    "5982852": 1,
    "movieId": 1293847
  },
  {
    "493405": "NaN",
    "498381": 0.928476691,
    "1219827": 0.986469232,
    "1293847": "NaN",
    "1691916": 1,
    "1730768": "NaN",
    "1753383": 1,
    "2072233": 1,
    "2398241": "NaN",
    "2568862": 0.988235294,
    "2582576": 1,
    "2763304": "NaN",
    "2771200": 0.98467484,
    "3171832": 1,
    "3315342": 0.934997738,
    "3401882": 0.992733782,
    "3405236": "NaN",
    "3462710": "NaN",
    "3717490": 0.989803084,
    "3731562": 0.937097252,
    "3874544": 0.989949494,
    "3896198": 1,
    "3922818": 1,
    "4030600": "NaN",
    "4116284": 0.989949494,
    "4217392": "NaN",
    "4287320": 0.997054486,
    "4425200": 0.989730305,
    "4465564": 0.912766595,
    "4481414": "NaN",
    "4581576": 1,
    "4630562": 0.907238037,
    "4849438": "NaN",
    "5052448": 0.938045426,
    "5155780": "NaN",
    "5442430": 0.945657695,
    "5460276": "NaN",
    "5607714": "NaN",
    "5710514": "NaN",
    "5982852": "NaN",
    "movieId": 1691916
  },
  {
    "493405": "NaN",
    "498381": "NaN",
    "1219827": 0.967927492,
    "1293847": "NaN",
    "1691916": "NaN",
    "1730768": 1,
    "1753383": 1,
    "2072233": "NaN",
    "2398241": "NaN",
    "2568862": "NaN",
    "2582576": "NaN",
    "2763304": 1,
    "2771200": 0.995211591,
    "3171832": "NaN",
    "3315342": 0.998659501,
    "3401882": 1,
    "3405236": "NaN",
    "3462710": "NaN",
    "3717490": 0.999947942,
    "3731562": 0.994949495,
    "3874544": 0.997529518,
    "3896198": "NaN",
    "3922818": "NaN",
    "4030600": "NaN",
    "4116284": 0.99716412,
    "4217392": "NaN",
    "4287320": 1,
    "4425200": 0.981211046,
    "4465564": 1,
    "4481414": "NaN",
    "4581576": "NaN",
    "4630562": 0.998460353,
    "4849438": "NaN",
    "5052448": 0.98601375,
    "5155780": "NaN",
    "5442430": 1,
    "5460276": "NaN",
    "5607714": "NaN",
    "5710514": "NaN",
    "5982852": "NaN",
    "movieId": 1730768
  },
  {
    "493405": "NaN",
    "498381": 0.480011415,
    "1219827": 0.991967741,
    "1293847": 1,
    "1691916": 1,
    "1730768": 1,
    "1753383": 1,
    "2072233": "NaN",
    "2398241": "NaN",
    "2568862": "NaN",
    "2582576": "NaN",
    "2763304": 1,
    "2771200": 0.938768427,
    "3171832": "NaN",
    "3315342": 0.954192766,
    "3401882": 0.986393924,
    "3405236": "NaN",
    "3462710": 1,
    "3717490": "NaN",
    "3731562": 0.918893728,
    "3874544": 1,
    "3896198": 1,
    "3922818": "NaN",
    "4030600": "NaN",
    "4116284": 0.996620965,
    "4217392": "NaN",
    "4287320": 1,
    "4425200": 1,
    "4465564": 0.629600188,
    "4481414": 1,
    "4581576": 1,
    "4630562": 0.982608426,
    "4849438": "NaN",
    "5052448": 0.948045117,
    "5155780": "NaN",
    "5442430": 1,
    "5460276": "NaN",
    "5607714": "NaN",
    "5710514": "NaN",
    "5982852": "NaN",
    "movieId": 1753383
  },
  {
    "493405": 1,
    "498381": 0.912302744,
    "1219827": 0.959785966,
    "1293847": 0.903696114,
    "1691916": 1,
    "1730768": "NaN",
    "1753383": "NaN",
    "2072233": 1,
    "2398241": 1,
    "2568862": 0.979481023,
    "2582576": 0.989744008,
    "2763304": 1,
    "2771200": 0.982812226,
    "3171832": 1,
    "3315342": 0.959841357,
    "3401882": 0.896526715,
    "3405236": 0.986016014,
    "3462710": 0.989408559,
    "3717490": 0.997551319,
    "3731562": 0.961723022,
    "3874544": 0.982102279,
    "3896198": 0.985422294,
    "3922818": 0.980809654,
    "4030600": "NaN",
    "4116284": 0.945124712,
    "4217392": 0.828441042,
    "4287320": 0.9682906,
    "4425200": 0.821096797,
    "4465564": 1,
    "4481414": "NaN",
    "4581576": 0.996208161,
    "4630562": 0.960966086,
    "4849438": "NaN",
    "5052448": 0.909596955,
    "5155780": 1,
    "5442430": 0.955966614,
    "5460276": 1,
    "5607714": "NaN",
    "5710514": 1,
    "5982852": "NaN",
    "movieId": 2072233
  },
  {
    "493405": "NaN",
    "498381": 0.980137906,
    "1219827": 0.901700096,
    "1293847": 0.823687768,
    "1691916": "NaN",
    "1730768": "NaN",
    "1753383": "NaN",
    "2072233": 1,
    "2398241": 1,
    "2568862": 0.91192176,
    "2582576": "NaN",
    "2763304": "NaN",
    "2771200": 0.961869227,
    "3171832": "NaN",
    "3315342": 0.938503717,
    "3401882": 1,
    "3405236": 0.915208631,
    "3462710": 0.996786917,
    "3717490": 0.959126359,
    "3731562": 0.969776823,
    "3874544": 0.930537331,
    "3896198": 0.956465082,
    "3922818": 1,
    "4030600": 1,
    "4116284": 0.999491109,
    "4217392": "NaN",
    "4287320": 1,
    "4425200": 0.932154592,
    "4465564": 0.879706514,
    "4481414": "NaN",
    "4581576": 0.99716412,
    "4630562": 0.917485892,
    "4849438": "NaN",
    "5052448": 0.982380338,
    "5155780": 1,
    "5442430": 0.957550257,
    "5460276": "NaN",
    "5607714": "NaN",
    "5710514": "NaN",
    "5982852": "NaN",
    "movieId": 2398241
  },
  {
    "493405": 1,
    "498381": 0.969071079,
    "1219827": 0.978950449,
    "1293847": 0.914084931,
    "1691916": 0.988235294,
    "1730768": "NaN",
    "1753383": "NaN",
    "2072233": 0.979481023,
    "2398241": 0.91192176,
    "2568862": 1,
    "2582576": "NaN",
    "2763304": 0.983094732,
    "2771200": 0.969530228,
    "3171832": 1,
    "3315342": 0.985861986,
    "3401882": 0.924400376,
    "3405236": 0.979364336,
    "3462710": 0.855748918,
    "3717490": 0.945477664,
    "3731562": 0.973382281,
    "3874544": 0.981737755,
    "3896198": 0.989193378,
    "3922818": 0.997951741,
    "4030600": 0.77326779,
    "4116284": 0.9864066,
    "4217392": 1,
    "4287320": 0.891903506,
    "4425200": 0.913555646,
    "4465564": 0.997261587,
    "4481414": 1,
    "4581576": 1,
    "4630562": 0.947057622,
    "4849438": 1,
    "5052448": 0.982859908,
    "5155780": 1,
    "5442430": 0.979386606,
    "5460276": 1,
    "5607714": "NaN",
    "5710514": "NaN",
    "5982852": "NaN",
    "movieId": 2568862
  },
  {
    "493405": "NaN",
    "498381": 1,
    "1219827": 1,
    "1293847": 0.995893206,
    "1691916": 1,
    "1730768": "NaN",
    "1753383": "NaN",
    "2072233": 0.989744008,
    "2398241": "NaN",
    "2568862": "NaN",
    "2582576": 1,
    "2763304": "NaN",
    "2771200": 0.977135528,
    "3171832": "NaN",
    "3315342": 0.919276962,
    "3401882": 1,
    "3405236": "NaN",
    "3462710": "NaN",
    "3717490": "NaN",
    "3731562": 0.953395946,
    "3874544": "NaN",
    "3896198": 0.958798113,
    "3922818": 0.980580676,
    "4030600": 0.900551636,
    "4116284": 0.973934915,
    "4217392": "NaN",
    "4287320": "NaN",
    "4425200": "NaN",
    "4465564": 0.981139061,
    "4481414": "NaN",
    "4581576": 1,
    "4630562": 1,
    "4849438": "NaN",
    "5052448": 0.926561646,
    "5155780": 1,
    "5442430": 0.97051731,
    "5460276": "NaN",
    "5607714": "NaN",
    "5710514": 0.954226214,
    "5982852": "NaN",
    "movieId": 2582576
  },
  {
    "493405": 0.981362683,
    "498381": 0.987414217,
    "1219827": 0.962892732,
    "1293847": 0.937021091,
    "1691916": "NaN",
    "1730768": 1,
    "1753383": 1,
    "2072233": 1,
    "2398241": "NaN",
    "2568862": 0.983094732,
    "2582576": "NaN",
    "2763304": 1,
    "2771200": 0.960420314,
    "3171832": "NaN",
    "3315342": 0.990232372,
    "3401882": 1,
    "3405236": "NaN",
    "3462710": "NaN",
    "3717490": 0.997972071,
    "3731562": 0.988596548,
    "3874544": 0.986955803,
    "3896198": 0.994475802,
    "3922818": 1,
    "4030600": 1,
    "4116284": 0.983969402,
    "4217392": "NaN",
    "4287320": 0.997785158,
    "4425200": 0.992295485,
    "4465564": 0.916949301,
    "4481414": "NaN",
    "4581576": 0.999709808,
    "4630562": 0.966967584,
    "4849438": "NaN",
    "5052448": 0.98670804,
    "5155780": "NaN",
    "5442430": 0.989157839,
    "5460276": "NaN",
    "5607714": 1,
    "5710514": 0.993265917,
    "5982852": "NaN",
    "movieId": 2763304
  },
  {
    "493405": 0.904915715,
    "498381": 0.914234368,
    "1219827": 0.935729098,
    "1293847": 0.921112381,
    "1691916": 0.98467484,
    "1730768": 0.995211591,
    "1753383": 0.938768427,
    "2072233": 0.982812226,
    "2398241": 0.961869227,
    "2568862": 0.969530228,
    "2582576": 0.977135528,
    "2763304": 0.960420314,
    "2771200": 1,
    "3171832": 0.847097488,
    "3315342": 0.972752471,
    "3401882": 0.980793871,
    "3405236": 0.99797343,
    "3462710": 0.914774368,
    "3717490": 0.967708675,
    "3731562": 0.966123028,
    "3874544": 0.979312243,
    "3896198": 0.966464312,
    "3922818": 0.979286039,
    "4030600": 0.994540886,
    "4116284": 0.985882391,
    "4217392": 1,
    "4287320": 0.952609313,
    "4425200": 0.974911709,
    "4465564": 0.945654962,
    "4481414": 0.995399675,
    "4581576": 0.995893206,
    "4630562": 0.970440209,
    "4849438": 0.999980949,
    "5052448": 0.97678801,
    "5155780": 0.965775404,
    "5442430": 0.967818174,
    "5460276": 0.944737946,
    "5607714": "NaN",
    "5710514": 0.954893531,
    "5982852": 1,
    "movieId": 2771200
  },
  {
    "493405": "NaN",
    "498381": "NaN",
    "1219827": 0.998868138,
    "1293847": 0.824441009,
    "1691916": 1,
    "1730768": "NaN",
    "1753383": "NaN",
    "2072233": 1,
    "2398241": "NaN",
    "2568862": 1,
    "2582576": "NaN",
    "2763304": "NaN",
    "2771200": 0.847097488,
    "3171832": 1,
    "3315342": 0.97876103,
    "3401882": 1,
    "3405236": 1,
    "3462710": "NaN",
    "3717490": 1,
    "3731562": 0.977262288,
    "3874544": 0.986016014,
    "3896198": 0.995783405,
    "3922818": 0.980067422,
    "4030600": "NaN",
    "4116284": 0.940630642,
    "4217392": 0.999444907,
    "4287320": "NaN",
    "4425200": 0.997755518,
    "4465564": "NaN",
    "4481414": "NaN",
    "4581576": "NaN",
    "4630562": 0.838325948,
    "4849438": "NaN",
    "5052448": 0.984117685,
    "5155780": "NaN",
    "5442430": 0.972472376,
    "5460276": 0.991150442,
    "5607714": "NaN",
    "5710514": 0.981155781,
    "5982852": 0.997785158,
    "movieId": 3171832
  },
  {
    "493405": 0.966956772,
    "498381": 0.916567516,
    "1219827": 0.969611486,
    "1293847": 0.938561288,
    "1691916": 0.934997738,
    "1730768": 0.998659501,
    "1753383": 0.954192766,
    "2072233": 0.959841357,
    "2398241": 0.938503717,
    "2568862": 0.985861986,
    "2582576": 0.919276962,
    "2763304": 0.990232372,
    "2771200": 0.972752471,
    "3171832": 0.97876103,
    "3315342": 1,
    "3401882": 0.982387913,
    "3405236": 0.985757735,
    "3462710": 0.812295542,
    "3717490": 0.976667428,
    "3731562": 0.971614168,
    "3874544": 0.982046812,
    "3896198": 0.987776756,
    "3922818": 0.963592629,
    "4030600": 0.844560247,
    "4116284": 0.983780949,
    "4217392": 0.935087799,
    "4287320": 0.946047026,
    "4425200": 0.968634096,
    "4465564": 0.919396091,
    "4481414": 0.99875843,
    "4581576": 0.918138202,
    "4630562": 0.968210249,
    "4849438": 0.996044704,
    "5052448": 0.981018851,
    "5155780": 0.987348712,
    "5442430": 0.978113488,
    "5460276": 0.997612158,
    "5607714": 0.938976438,
    "5710514": 0.976660585,
    "5982852": 0.991836598,
    "movieId": 3315342
  },
  {
    "493405": 1,
    "498381": 0.96343524,
    "1219827": 0.99611649,
    "1293847": 0.877777778,
    "1691916": 0.992733782,
    "1730768": 1,
    "1753383": 0.986393924,
    "2072233": 0.896526715,
    "2398241": 1,
    "2568862": 0.924400376,
    "2582576": 1,
    "2763304": 1,
    "2771200": 0.980793871,
    "3171832": 1,
    "3315342": 0.982387913,
    "3401882": 1,
    "3405236": "NaN",
    "3462710": "NaN",
    "3717490": 0.998654097,
    "3731562": 0.970704005,
    "3874544": 0.997375364,
    "3896198": 1,
    "3922818": 1,
    "4030600": 1,
    "4116284": 0.978671298,
    "4217392": "NaN",
    "4287320": 0.964763821,
    "4425200": 0.915829417,
    "4465564": 0.856348839,
    "4481414": 1,
    "4581576": 1,
    "4630562": 0.994286396,
    "4849438": "NaN",
    "5052448": 0.976849947,
    "5155780": "NaN",
    "5442430": 0.97210817,
    "5460276": "NaN",
    "5607714": "NaN",
    "5710514": "NaN",
    "5982852": "NaN",
    "movieId": 3401882
  },
  {
    "493405": "NaN",
    "498381": 0.950357402,
    "1219827": 1,
    "1293847": 0.935376561,
    "1691916": "NaN",
    "1730768": "NaN",
    "1753383": "NaN",
    "2072233": 0.986016014,
    "2398241": 0.915208631,
    "2568862": 0.979364336,
    "2582576": "NaN",
    "2763304": "NaN",
    "2771200": 0.99797343,
    "3171832": 1,
    "3315342": 0.985757735,
    "3401882": "NaN",
    "3405236": 1,
    "3462710": 1,
    "3717490": 0.984528915,
    "3731562": 0.991083924,
    "3874544": 0.992356775,
    "3896198": 1,
    "3922818": "NaN",
    "4030600": "NaN",
    "4116284": 0.997248427,
    "4217392": 0.995893206,
    "4287320": 1,
    "4425200": 0.969468787,
    "4465564": 1,
    "4481414": "NaN",
    "4581576": "NaN",
    "4630562": 0.976561673,
    "4849438": 0.986940183,
    "5052448": 0.983146684,
    "5155780": "NaN",
    "5442430": 0.983967484,
    "5460276": 0.985097394,
    "5607714": "NaN",
    "5710514": "NaN",
    "5982852": 0.98467433,
    "movieId": 3405236
  },
  {
    "493405": "NaN",
    "498381": 0.986016014,
    "1219827": 0.905821627,
    "1293847": 0.95292578,
    "1691916": "NaN",
    "1730768": "NaN",
    "1753383": 1,
    "2072233": 0.989408559,
    "2398241": 0.996786917,
    "2568862": 0.855748918,
    "2582576": "NaN",
    "2763304": "NaN",
    "2771200": 0.914774368,
    "3171832": "NaN",
    "3315342": 0.812295542,
    "3401882": "NaN",
    "3405236": 1,
    "3462710": 1,
    "3717490": 1,
    "3731562": 0.909836329,
    "3874544": 1,
    "3896198": 0.940554281,
    "3922818": "NaN",
    "4030600": "NaN",
    "4116284": 1,
    "4217392": "NaN",
    "4287320": 1,
    "4425200": 0.927100999,
    "4465564": 1,
    "4481414": "NaN",
    "4581576": 0.999957837,
    "4630562": 0.93783213,
    "4849438": "NaN",
    "5052448": 0.873304855,
    "5155780": 0.83701022,
    "5442430": 0.891051177,
    "5460276": "NaN",
    "5607714": "NaN",
    "5710514": "NaN",
    "5982852": "NaN",
    "movieId": 3462710
  },
  {
    "493405": 0.998530965,
    "498381": 0.945862866,
    "1219827": 0.960144512,
    "1293847": 0.98699796,
    "1691916": 0.989803084,
    "1730768": 0.999947942,
    "1753383": "NaN",
    "2072233": 0.997551319,
    "2398241": 0.959126359,
    "2568862": 0.945477664,
    "2582576": "NaN",
    "2763304": 0.997972071,
    "2771200": 0.967708675,
    "3171832": 1,
    "3315342": 0.976667428,
    "3401882": 0.998654097,
    "3405236": 0.984528915,
    "3462710": 1,
    "3717490": 1,
    "3731562": 0.968579068,
    "3874544": 0.961088846,
    "3896198": 0.977475057,
    "3922818": 0.997364949,
    "4030600": 1,
    "4116284": 0.967468543,
    "4217392": "NaN",
    "4287320": 0.992543455,
    "4425200": 0.98666242,
    "4465564": 0.963815362,
    "4481414": 1,
    "4581576": 1,
    "4630562": 0.966327525,
    "4849438": "NaN",
    "5052448": 0.958133663,
    "5155780": 1,
    "5442430": 0.93651342,
    "5460276": 1,
    "5607714": "NaN",
    "5710514": 0.999837715,
    "5982852": "NaN",
    "movieId": 3717490
  },
  {
    "493405": 0.988896348,
    "498381": 0.913749867,
    "1219827": 0.971822747,
    "1293847": 0.950477213,
    "1691916": 0.937097252,
    "1730768": 0.994949495,
    "1753383": 0.918893728,
    "2072233": 0.961723022,
    "2398241": 0.969776823,
    "2568862": 0.973382281,
    "2582576": 0.953395946,
    "2763304": 0.988596548,
    "2771200": 0.966123028,
    "3171832": 0.977262288,
    "3315342": 0.971614168,
    "3401882": 0.970704005,
    "3405236": 0.991083924,
    "3462710": 0.909836329,
    "3717490": 0.968579068,
    "3731562": 1,
    "3874544": 0.986222062,
    "3896198": 0.979307933,
    "3922818": 0.98736869,
    "4030600": 0.969115544,
    "4116284": 0.979706297,
    "4217392": 0.93670191,
    "4287320": 0.878072249,
    "4425200": 0.974167205,
    "4465564": 0.928128813,
    "4481414": 0.967091361,
    "4581576": 0.974179256,
    "4630562": 0.976703931,
    "4849438": 0.998726925,
    "5052448": 0.975184903,
    "5155780": 0.99780995,
    "5442430": 0.97101113,
    "5460276": 0.996100704,
    "5607714": "NaN",
    "5710514": 0.949078085,
    "5982852": 0.99620492,
    "movieId": 3731562
  },
  {
    "493405": "NaN",
    "498381": 0.922800883,
    "1219827": 0.962501175,
    "1293847": 0.97547566,
    "1691916": 0.989949494,
    "1730768": 0.997529518,
    "1753383": 1,
    "2072233": 0.982102279,
    "2398241": 0.930537331,
    "2568862": 0.981737755,
    "2582576": "NaN",
    "2763304": 0.986955803,
    "2771200": 0.979312243,
    "3171832": 0.986016014,
    "3315342": 0.982046812,
    "3401882": 0.997375364,
    "3405236": 0.992356775,
    "3462710": 1,
    "3717490": 0.961088846,
    "3731562": 0.986222062,
    "3874544": 1,
    "3896198": 0.981797044,
    "3922818": 0.996545758,
    "4030600": 1,
    "4116284": 0.991499294,
    "4217392": "NaN",
    "4287320": 0.958966749,
    "4425200": 0.967738321,
    "4465564": 0.941490485,
    "4481414": "NaN",
    "4581576": 0.730271414,
    "4630562": 0.976297083,
    "4849438": "NaN",
    "5052448": 0.980805476,
    "5155780": "NaN",
    "5442430": 0.948618841,
    "5460276": "NaN",
    "5607714": "NaN",
    "5710514": "NaN",
    "5982852": "NaN",
    "movieId": 3874544
  },
  {
    "493405": 0.999905754,
    "498381": 0.934487735,
    "1219827": 0.977729309,
    "1293847": 0.966830439,
    "1691916": 1,
    "1730768": "NaN",
    "1753383": 1,
    "2072233": 0.985422294,
    "2398241": 0.956465082,
    "2568862": 0.989193378,
    "2582576": 0.958798113,
    "2763304": 0.994475802,
    "2771200": 0.966464312,
    "3171832": 0.995783405,
    "3315342": 0.987776756,
    "3401882": 1,
    "3405236": 1,
    "3462710": 0.940554281,
    "3717490": 0.977475057,
    "3731562": 0.979307933,
    "3874544": 0.981797044,
    "3896198": 1,
    "3922818": 0.953625085,
    "4030600": 0.83725727,
    "4116284": 0.972789417,
    "4217392": "NaN",
    "4287320": 0.991407446,
    "4425200": 0.991655015,
    "4465564": 0.876813351,
    "4481414": "NaN",
    "4581576": 0.98525535,
    "4630562": 0.967195582,
    "4849438": "NaN",
    "5052448": 0.97827007,
    "5155780": 0.925569953,
    "5442430": 0.986690521,
    "5460276": "NaN",
    "5607714": "NaN",
    "5710514": 0.98035238,
    "5982852": "NaN",
    "movieId": 3896198
  },
  {
    "493405": "NaN",
    "498381": 1,
    "1219827": 0.981106988,
    "1293847": 0.74753193,
    "1691916": 1,
    "1730768": "NaN",
    "1753383": "NaN",
    "2072233": 0.980809654,
    "2398241": 1,
    "2568862": 0.997951741,
    "2582576": 0.980580676,
    "2763304": 1,
    "2771200": 0.979286039,
    "3171832": 0.980067422,
    "3315342": 0.963592629,
    "3401882": 1,
    "3405236": "NaN",
    "3462710": "NaN",
    "3717490": 0.997364949,
    "3731562": 0.98736869,
    "3874544": 0.996545758,
    "3896198": 0.953625085,
    "3922818": 1,
    "4030600": 1,
    "4116284": 0.919703027,
    "4217392": "NaN",
    "4287320": 1,
    "4425200": 0.867933073,
    "4465564": 0.975289627,
    "4481414": 1,
    "4581576": 1,
    "4630562": 0.997445038,
    "4849438": "NaN",
    "5052448": 0.984686688,
    "5155780": "NaN",
    "5442430": 0.970689226,
    "5460276": 1,
    "5607714": "NaN",
    "5710514": 0.973273559,
    "5982852": 1,
    "movieId": 3922818
  },
  {
    "493405": "NaN",
    "498381": 0.956018558,
    "1219827": 1,
    "1293847": "NaN",
    "1691916": "NaN",
    "1730768": "NaN",
    "1753383": "NaN",
    "2072233": "NaN",
    "2398241": 1,
    "2568862": 0.77326779,
    "2582576": 0.900551636,
    "2763304": 1,
    "2771200": 0.994540886,
    "3171832": "NaN",
    "3315342": 0.844560247,
    "3401882": 1,
    "3405236": "NaN",
    "3462710": "NaN",
    "3717490": 1,
    "3731562": 0.969115544,
    "3874544": 1,
    "3896198": 0.83725727,
    "3922818": 1,
    "4030600": 1,
    "4116284": 0.986705866,
    "4217392": "NaN",
    "4287320": 1,
    "4425200": 1,
    "4465564": 0.943599982,
    "4481414": "NaN",
    "4581576": 1,
    "4630562": 1,
    "4849438": "NaN",
    "5052448": 0.967855221,
    "5155780": "NaN",
    "5442430": 0.955619559,
    "5460276": "NaN",
    "5607714": "NaN",
    "5710514": "NaN",
    "5982852": "NaN",
    "movieId": 4030600
  },
  {
    "493405": 0.932568098,
    "498381": 0.969900958,
    "1219827": 0.954905566,
    "1293847": 0.964547863,
    "1691916": 0.989949494,
    "1730768": 0.99716412,
    "1753383": 0.996620965,
    "2072233": 0.945124712,
    "2398241": 0.999491109,
    "2568862": 0.9864066,
    "2582576": 0.973934915,
    "2763304": 0.983969402,
    "2771200": 0.985882391,
    "3171832": 0.940630642,
    "3315342": 0.983780949,
    "3401882": 0.978671298,
    "3405236": 0.997248427,
    "3462710": 1,
    "3717490": 0.967468543,
    "3731562": 0.979706297,
    "3874544": 0.991499294,
    "3896198": 0.972789417,
    "3922818": 0.919703027,
    "4030600": 0.986705866,
    "4116284": 1,
    "4217392": "NaN",
    "4287320": 0.951519428,
    "4425200": 0.984099626,
    "4465564": 0.898948887,
    "4481414": 0.987762965,
    "4581576": 0.935472094,
    "4630562": 0.960155929,
    "4849438": "NaN",
    "5052448": 0.986033425,
    "5155780": 0.994162447,
    "5442430": 0.97683376,
    "5460276": 1,
    "5607714": 1,
    "5710514": 0.977679881,
    "5982852": 1,
    "movieId": 4116284
  },
  {
    "493405": 1,
    "498381": 0.979804059,
    "1219827": "NaN",
    "1293847": 0.911684612,
    "1691916": "NaN",
    "1730768": "NaN",
    "1753383": "NaN",
    "2072233": 0.828441042,
    "2398241": "NaN",
    "2568862": 1,
    "2582576": "NaN",
    "2763304": "NaN",
    "2771200": 1,
    "3171832": 0.999444907,
    "3315342": 0.935087799,
    "3401882": "NaN",
    "3405236": 0.995893206,
    "3462710": "NaN",
    "3717490": "NaN",
    "3731562": 0.93670191,
    "3874544": "NaN",
    "3896198": "NaN",
    "3922818": "NaN",
    "4030600": "NaN",
    "4116284": "NaN",
    "4217392": 1,
    "4287320": "NaN",
    "4425200": 0.989949494,
    "4465564": "NaN",
    "4481414": "NaN",
    "4581576": 0.894427191,
    "4630562": 0.926914421,
    "4849438": "NaN",
    "5052448": 0.951370917,
    "5155780": "NaN",
    "5442430": 1,
    "5460276": 1,
    "5607714": "NaN",
    "5710514": "NaN",
    "5982852": "NaN",
    "movieId": 4217392
  },
  {
    "493405": "NaN",
    "498381": 0.988571053,
    "1219827": 0.97531982,
    "1293847": 0.976647389,
    "1691916": 0.997054486,
    "1730768": 1,
    "1753383": 1,
    "2072233": 0.9682906,
    "2398241": 1,
    "2568862": 0.891903506,
    "2582576": "NaN",
    "2763304": 0.997785158,
    "2771200": 0.952609313,
    "3171832": "NaN",
    "3315342": 0.946047026,
    "3401882": 0.964763821,
    "3405236": 1,
    "3462710": 1,
    "3717490": 0.992543455,
    "3731562": 0.878072249,
    "3874544": 0.958966749,
    "3896198": 0.991407446,
    "3922818": 1,
    "4030600": 1,
    "4116284": 0.951519428,
    "4217392": "NaN",
    "4287320": 1,
    "4425200": 0.881806024,
    "4465564": 1,
    "4481414": 0.930757842,
    "4581576": 1,
    "4630562": 0.947542675,
    "4849438": "NaN",
    "5052448": 0.956055678,
    "5155780": "NaN",
    "5442430": 0.978534304,
    "5460276": "NaN",
    "5607714": "NaN",
    "5710514": 1,
    "5982852": "NaN",
    "movieId": 4287320
  },
  {
    "493405": 0.964293976,
    "498381": 0.930295452,
    "1219827": 0.97483227,
    "1293847": 0.937772689,
    "1691916": 0.989730305,
    "1730768": 0.981211046,
    "1753383": 1,
    "2072233": 0.821096797,
    "2398241": 0.932154592,
    "2568862": 0.913555646,
    "2582576": "NaN",
    "2763304": 0.992295485,
    "2771200": 0.974911709,
    "3171832": 0.997755518,
    "3315342": 0.968634096,
    "3401882": 0.915829417,
    "3405236": 0.969468787,
    "3462710": 0.927100999,
    "3717490": 0.98666242,
    "3731562": 0.974167205,
    "3874544": 0.967738321,
    "3896198": 0.991655015,
    "3922818": 0.867933073,
    "4030600": 1,
    "4116284": 0.984099626,
    "4217392": 0.989949494,
    "4287320": 0.881806024,
    "4425200": 1,
    "4465564": 0.96831085,
    "4481414": 1,
    "4581576": 0.912837588,
    "4630562": 0.976549144,
    "4849438": 0.999980949,
    "5052448": 0.976149806,
    "5155780": 1,
    "5442430": 0.958314838,
    "5460276": 0.994691794,
    "5607714": 1,
    "5710514": 0.957589682,
    "5982852": 0.84269626,
    "movieId": 4425200
  },
  {
    "493405": "NaN",
    "498381": 0.902575971,
    "1219827": 0.912661078,
    "1293847": 0.970764227,
    "1691916": 0.912766595,
    "1730768": 1,
    "1753383": 0.629600188,
    "2072233": 1,
    "2398241": 0.879706514,
    "2568862": 0.997261587,
    "2582576": 0.981139061,
    "2763304": 0.916949301,
    "2771200": 0.945654962,
    "3171832": "NaN",
    "3315342": 0.919396091,
    "3401882": 0.856348839,
    "3405236": 1,
    "3462710": 1,
    "3717490": 0.963815362,
    "3731562": 0.928128813,
    "3874544": 0.941490485,
    "3896198": 0.876813351,
    "3922818": 0.975289627,
    "4030600": 0.943599982,
    "4116284": 0.898948887,
    "4217392": "NaN",
    "4287320": 1,
    "4425200": 0.96831085,
    "4465564": 1,
    "4481414": "NaN",
    "4581576": 0.925694947,
    "4630562": 0.941749029,
    "4849438": "NaN",
    "5052448": 0.926211007,
    "5155780": 0.789352217,
    "5442430": 0.937333585,
    "5460276": "NaN",
    "5607714": 1,
    "5710514": "NaN",
    "5982852": "NaN",
    "movieId": 4465564
  },
  {
    "493405": "NaN",
    "498381": "NaN",
    "1219827": "NaN",
    "1293847": "NaN",
    "1691916": "NaN",
    "1730768": "NaN",
    "1753383": 1,
    "2072233": "NaN",
    "2398241": "NaN",
    "2568862": 1,
    "2582576": "NaN",
    "2763304": "NaN",
    "2771200": 0.995399675,
    "3171832": "NaN",
    "3315342": 0.99875843,
    "3401882": 1,
    "3405236": "NaN",
    "3462710": "NaN",
    "3717490": 1,
    "3731562": 0.967091361,
    "3874544": "NaN",
    "3896198": "NaN",
    "3922818": 1,
    "4030600": "NaN",
    "4116284": 0.987762965,
    "4217392": "NaN",
    "4287320": 0.930757842,
    "4425200": 1,
    "4465564": "NaN",
    "4481414": 1,
    "4581576": "NaN",
    "4630562": 0.909340997,
    "4849438": "NaN",
    "5052448": 0.986710793,
    "5155780": "NaN",
    "5442430": 0.992733782,
    "5460276": "NaN",
    "5607714": "NaN",
    "5710514": "NaN",
    "5982852": "NaN",
    "movieId": 4481414
  },
  {
    "493405": "NaN",
    "498381": 0.990373372,
    "1219827": 0.954275175,
    "1293847": 0.922033236,
    "1691916": 1,
    "1730768": "NaN",
    "1753383": 1,
    "2072233": 0.996208161,
    "2398241": 0.99716412,
    "2568862": 1,
    "2582576": 1,
    "2763304": 0.999709808,
    "2771200": 0.995893206,
    "3171832": "NaN",
    "3315342": 0.918138202,
    "3401882": 1,
    "3405236": "NaN",
    "3462710": 0.999957837,
    "3717490": 1,
    "3731562": 0.974179256,
    "3874544": 0.730271414,
    "3896198": 0.98525535,
    "3922818": 1,
    "4030600": 1,
    "4116284": 0.935472094,
    "4217392": 0.894427191,
    "4287320": 1,
    "4425200": 0.912837588,
    "4465564": 0.925694947,
    "4481414": "NaN",
    "4581576": 1,
    "4630562": 0.931848544,
    "4849438": "NaN",
    "5052448": 0.983391559,
    "5155780": 1,
    "5442430": 0.8626168,
    "5460276": "NaN",
    "5607714": "NaN",
    "5710514": 0.992005875,
    "5982852": "NaN",
    "movieId": 4581576
  },
  {
    "493405": 0.994237018,
    "498381": 0.94720902,
    "1219827": 0.961744255,
    "1293847": 0.953914697,
    "1691916": 0.907238037,
    "1730768": 0.998460353,
    "1753383": 0.982608426,
    "2072233": 0.960966086,
    "2398241": 0.917485892,
    "2568862": 0.947057622,
    "2582576": 1,
    "2763304": 0.966967584,
    "2771200": 0.970440209,
    "3171832": 0.838325948,
    "3315342": 0.968210249,
    "3401882": 0.994286396,
    "3405236": 0.976561673,
    "3462710": 0.93783213,
    "3717490": 0.966327525,
    "3731562": 0.976703931,
    "3874544": 0.976297083,
    "3896198": 0.967195582,
    "3922818": 0.997445038,
    "4030600": 1,
    "4116284": 0.960155929,
    "4217392": 0.926914421,
    "4287320": 0.947542675,
    "4425200": 0.976549144,
    "4465564": 0.941749029,
    "4481414": 0.909340997,
    "4581576": 0.931848544,
    "4630562": 1,
    "4849438": 0.99199615,
    "5052448": 0.955590862,
    "5155780": 0.989949494,
    "5442430": 0.964493552,
    "5460276": 0.932098235,
    "5607714": "NaN",
    "5710514": 0.930468598,
    "5982852": 1,
    "movieId": 4630562
  },
  {
    "493405": "NaN",
    "498381": "NaN",
    "1219827": "NaN",
    "1293847": 1,
    "1691916": "NaN",
    "1730768": "NaN",
    "1753383": "NaN",
    "2072233": "NaN",
    "2398241": "NaN",
    "2568862": 1,
    "2582576": "NaN",
    "2763304": "NaN",
    "2771200": 0.999980949,
    "3171832": "NaN",
    "3315342": 0.996044704,
    "3401882": "NaN",
    "3405236": 0.986940183,
    "3462710": "NaN",
    "3717490": "NaN",
    "3731562": 0.998726925,
    "3874544": "NaN",
    "3896198": "NaN",
    "3922818": "NaN",
    "4030600": "NaN",
    "4116284": "NaN",
    "4217392": "NaN",
    "4287320": "NaN",
    "4425200": 0.999980949,
    "4465564": "NaN",
    "4481414": "NaN",
    "4581576": "NaN",
    "4630562": 0.99199615,
    "4849438": 1,
    "5052448": "NaN",
    "5155780": "NaN",
    "5442430": 1,
    "5460276": "NaN",
    "5607714": "NaN",
    "5710514": "NaN",
    "5982852": 0.998617829,
    "movieId": 4849438
  },
  {
    "493405": 0.894125831,
    "498381": 0.909959536,
    "1219827": 0.97720806,
    "1293847": 0.955757043,
    "1691916": 0.938045426,
    "1730768": 0.98601375,
    "1753383": 0.948045117,
    "2072233": 0.909596955,
    "2398241": 0.982380338,
    "2568862": 0.982859908,
    "2582576": 0.926561646,
    "2763304": 0.98670804,
    "2771200": 0.97678801,
    "3171832": 0.984117685,
    "3315342": 0.981018851,
    "3401882": 0.976849947,
    "3405236": 0.983146684,
    "3462710": 0.873304855,
    "3717490": 0.958133663,
    "3731562": 0.975184903,
    "3874544": 0.980805476,
    "3896198": 0.97827007,
    "3922818": 0.984686688,
    "4030600": 0.967855221,
    "4116284": 0.986033425,
    "4217392": 0.951370917,
    "4287320": 0.956055678,
    "4425200": 0.976149806,
    "4465564": 0.926211007,
    "4481414": 0.986710793,
    "4581576": 0.983391559,
    "4630562": 0.955590862,
    "4849438": "NaN",
    "5052448": 1,
    "5155780": 0.995154428,
    "5442430": 0.964039439,
    "5460276": 1,
    "5607714": "NaN",
    "5710514": 0.983722396,
    "5982852": "NaN",
    "movieId": 5052448
  },
  {
    "493405": "NaN",
    "498381": 1,
    "1219827": 0.967221163,
    "1293847": "NaN",
    "1691916": "NaN",
    "1730768": "NaN",
    "1753383": "NaN",
    "2072233": 1,
    "2398241": 1,
    "2568862": 1,
    "2582576": 1,
    "2763304": "NaN",
    "2771200": 0.965775404,
    "3171832": "NaN",
    "3315342": 0.987348712,
    "3401882": "NaN",
    "3405236": "NaN",
    "3462710": 0.83701022,
    "3717490": 1,
    "3731562": 0.99780995,
    "3874544": "NaN",
    "3896198": 0.925569953,
    "3922818": "NaN",
    "4030600": "NaN",
    "4116284": 0.994162447,
    "4217392": "NaN",
    "4287320": "NaN",
    "4425200": 1,
    "4465564": 0.789352217,
    "4481414": "NaN",
    "4581576": 1,
    "4630562": 0.989949494,
    "4849438": "NaN",
    "5052448": 0.995154428,
    "5155780": 1,
    "5442430": 0.984848485,
    "5460276": "NaN",
    "5607714": "NaN",
    "5710514": 0.992277877,
    "5982852": "NaN",
    "movieId": 5155780
  },
  {
    "493405": 0.971317877,
    "498381": 0.932492959,
    "1219827": 0.968417453,
    "1293847": 0.922473083,
    "1691916": 0.945657695,
    "1730768": 1,
    "1753383": 1,
    "2072233": 0.955966614,
    "2398241": 0.957550257,
    "2568862": 0.979386606,
    "2582576": 0.97051731,
    "2763304": 0.989157839,
    "2771200": 0.967818174,
    "3171832": 0.972472376,
    "3315342": 0.978113488,
    "3401882": 0.97210817,
    "3405236": 0.983967484,
    "3462710": 0.891051177,
    "3717490": 0.93651342,
    "3731562": 0.97101113,
    "3874544": 0.948618841,
    "3896198": 0.986690521,
    "3922818": 0.970689226,
    "4030600": 0.955619559,
    "4116284": 0.97683376,
    "4217392": 1,
    "4287320": 0.978534304,
    "4425200": 0.958314838,
    "4465564": 0.937333585,
    "4481414": 0.992733782,
    "4581576": 0.8626168,
    "4630562": 0.964493552,
    "4849438": 1,
    "5052448": 0.964039439,
    "5155780": 0.984848485,
    "5442430": 1,
    "5460276": 0.998641714,
    "5607714": "NaN",
    "5710514": 0.986157388,
    "5982852": "NaN",
    "movieId": 5442430
  },
  {
    "493405": "NaN",
    "498381": "NaN",
    "1219827": "NaN",
    "1293847": 0.974633979,
    "1691916": "NaN",
    "1730768": "NaN",
    "1753383": "NaN",
    "2072233": 1,
    "2398241": "NaN",
    "2568862": 1,
    "2582576": "NaN",
    "2763304": "NaN",
    "2771200": 0.944737946,
    "3171832": 0.991150442,
    "3315342": 0.997612158,
    "3401882": "NaN",
    "3405236": 0.985097394,
    "3462710": "NaN",
    "3717490": 1,
    "3731562": 0.996100704,
    "3874544": "NaN",
    "3896198": "NaN",
    "3922818": 1,
    "4030600": "NaN",
    "4116284": 1,
    "4217392": 1,
    "4287320": "NaN",
    "4425200": 0.994691794,
    "4465564": "NaN",
    "4481414": "NaN",
    "4581576": "NaN",
    "4630562": 0.932098235,
    "4849438": "NaN",
    "5052448": 1,
    "5155780": "NaN",
    "5442430": 0.998641714,
    "5460276": 1,
    "5607714": "NaN",
    "5710514": "NaN",
    "5982852": 0.993265917,
    "movieId": 5460276
  },
  {
    "493405": "NaN",
    "498381": "NaN",
    "1219827": 0.992157222,
    "1293847": "NaN",
    "1691916": "NaN",
    "1730768": "NaN",
    "1753383": "NaN",
    "2072233": "NaN",
    "2398241": "NaN",
    "2568862": "NaN",
    "2582576": "NaN",
    "2763304": 1,
    "2771200": "NaN",
    "3171832": "NaN",
    "3315342": 0.938976438,
    "3401882": "NaN",
    "3405236": "NaN",
    "3462710": "NaN",
    "3717490": "NaN",
    "3731562": "NaN",
    "3874544": "NaN",
    "3896198": "NaN",
    "3922818": "NaN",
    "4030600": "NaN",
    "4116284": 1,
    "4217392": "NaN",
    "4287320": "NaN",
    "4425200": 1,
    "4465564": 1,
    "4481414": "NaN",
    "4581576": "NaN",
    "4630562": "NaN",
    "4849438": "NaN",
    "5052448": "NaN",
    "5155780": "NaN",
    "5442430": "NaN",
    "5460276": "NaN",
    "5607714": 1,
    "5710514": "NaN",
    "5982852": "NaN",
    "movieId": 5607714
  },
  {
    "493405": "NaN",
    "498381": 0.903737839,
    "1219827": 0.978278785,
    "1293847": 1,
    "1691916": "NaN",
    "1730768": "NaN",
    "1753383": "NaN",
    "2072233": 1,
    "2398241": "NaN",
    "2568862": "NaN",
    "2582576": 0.954226214,
    "2763304": 0.993265917,
    "2771200": 0.954893531,
    "3171832": 0.981155781,
    "3315342": 0.976660585,
    "3401882": "NaN",
    "3405236": "NaN",
    "3462710": "NaN",
    "3717490": 0.999837715,
    "3731562": 0.949078085,
    "3874544": "NaN",
    "3896198": 0.98035238,
    "3922818": 0.973273559,
    "4030600": "NaN",
    "4116284": 0.977679881,
    "4217392": "NaN",
    "4287320": 1,
    "4425200": 0.957589682,
    "4465564": "NaN",
    "4481414": "NaN",
    "4581576": 0.992005875,
    "4630562": 0.930468598,
    "4849438": "NaN",
    "5052448": 0.983722396,
    "5155780": 0.992277877,
    "5442430": 0.986157388,
    "5460276": "NaN",
    "5607714": "NaN",
    "5710514": 1,
    "5982852": "NaN",
    "movieId": 5710514
  },
  {
    "493405": "NaN",
    "498381": "NaN",
    "1219827": "NaN",
    "1293847": 1,
    "1691916": "NaN",
    "1730768": "NaN",
    "1753383": "NaN",
    "2072233": "NaN",
    "2398241": "NaN",
    "2568862": "NaN",
    "2582576": "NaN",
    "2763304": "NaN",
    "2771200": 1,
    "3171832": 0.997785158,
    "3315342": 0.991836598,
    "3401882": "NaN",
    "3405236": 0.98467433,
    "3462710": "NaN",
    "3717490": "NaN",
    "3731562": 0.99620492,
    "3874544": "NaN",
    "3896198": "NaN",
    "3922818": 1,
    "4030600": "NaN",
    "4116284": 1,
    "4217392": "NaN",
    "4287320": "NaN",
    "4425200": 0.84269626,
    "4465564": "NaN",
    "4481414": "NaN",
    "4581576": "NaN",
    "4630562": 1,
    "4849438": 0.998617829,
    "5052448": "NaN",
    "5155780": "NaN",
    "5442430": "NaN",
    "5460276": 0.993265917,
    "5607714": "NaN",
    "5710514": "NaN",
    "5982852": 1,
    "movieId": 5982852
  }
]