[{"teatros":"Cine Colombia Mercurio","teatro":{"peliculas":[{"id":2568862,"funciones":[{"hora":"8:00 a.m."},{"hora":"10:00 a.m."},{"hora":"12:00 p.m."},{"hora":"2:00 p.m."},{"hora":"4:00 p.m."},{"hora":"6:00 p.m."},{"hora":"8:00 p.m."}]},{"id":5607714,"funciones":[{"hora":"8:00 a.m."},{"hora":"10:00 a.m."},{"hora":"12:00 p.m."},{"hora":"2:00 p.m."}]},{"id":3922818,"funciones":[{"hora":"8:00 a.m."},{"hora":"10:00 a.m."},{"hora":"12:00 p.m."},{"hora":"2:00 p.m."},{"hora":"4:00 p.m."}]},{"id":2568862,"funciones":[{"hora":"8:00 a.m."},{"hora":"10:00 a.m."},{"hora":"12:00 p.m."},{"hora":"2:00 p.m."},{"hora":"4:00 p.m."},{"hora":"6:00 p.m."}]},{"id":5710514,"funciones":[{"hora":"8:00 a.m."},{"hora":"10:00 a.m."},{"hora":"12:00 p.m."},{"hora":"2:00 p.m."},{"hora":"4:00 p.m."},{"hora":"6:00 p.m."},{"hora":"8:00 p.m."},{"hora":"10:00 p.m."}]},{"id":4581576,"funciones":[{"hora":"8:00 a.m."},{"hora":"10:00 a.m."},{"hora":"12:00 p.m."},{"hora":"2:00 p.m."},{"hora":"4:00 p.m."},{"hora":"6:00 p.m."},{"hora":"8:00 p.m."}]},{"id":2568862,"funciones":[{"hora":"8:00 a.m."},{"hora":"10:00 a.m."},{"hora":"12:00 p.m."},{"hora":"2:00 p.m."},{"hora":"4:00 p.m."},{"hora":"6:00 p.m."},{"hora":"8:00 p.m."},{"hora":"10:00 p.m."}]}]}},
{"teatros":"Cine Colombia Andino","teatro":{"peliculas":[{"id":3731562,"funciones":[{"hora":"8:00 a.m."},{"hora":"10:00 a.m."},{"hora":"12:00 p.m."},{"hora":"2:00 p.m."},{"hora":"4:00 p.m."},{"hora":"6:00 p.m."},{"hora":"8:00 p.m."}]},{"id":4630562,"funciones":[{"hora":"8:00 a.m."},{"hora":"10:00 a.m."},{"hora":"12:00 p.m."},{"hora":"2:00 p.m."}]},{"id":1730768,"funciones":[{"hora":"8:00 a.m."},{"hora":"10:00 a.m."},{"hora":"12:00 p.m."},{"hora":"2:00 p.m."},{"hora":"4:00 p.m."},{"hora":"6:00 p.m."}]},{"id":493405,"funciones":[{"hora":"8:00 a.m."},{"hora":"10:00 a.m."},{"hora":"12:00 p.m."},{"hora":"2:00 p.m."},{"hora":"4:00 p.m."},{"hora":"6:00 p.m."},{"hora":"8:00 p.m."}]},{"id":4425200,"funciones":[{"hora":"8:00 a.m."},{"hora":"10:00 a.m."},{"hora":"12:00 p.m."},{"hora":"2:00 p.m."},{"hora":"4:00 p.m."},{"hora":"6:00 p.m."},{"hora":"8:00 p.m."},{"hora":"10:00 p.m."}]},{"id":3896198,"funciones":[{"hora":"8:00 a.m."},{"hora":"10:00 a.m."},{"hora":"12:00 p.m."},{"hora":"2:00 p.m."}]}]}},
{"teatros":"Cine Colombia Avenida Chile","teatro":{"peliculas":[{"id":3922818,"funciones":[{"hora":"8:00 a.m."},{"hora":"10:00 a.m."},{"hora":"12:00 p.m."},{"hora":"2:00 p.m."},{"hora":"4:00 p.m."}]},{"id":4481414,"funciones":[{"hora":"8:00 a.m."},{"hora":"10:00 a.m."},{"hora":"12:00 p.m."},{"hora":"2:00 p.m."},{"hora":"4:00 p.m."},{"hora":"6:00 p.m."}]},{"id":2771200,"funciones":[{"hora":"8:00 a.m."},{"hora":"10:00 a.m."},{"hora":"12:00 p.m."},{"hora":"2:00 p.m."},{"hora":"4:00 p.m."}]},{"id":4030600,"funciones":[{"hora":"8:00 a.m."},{"hora":"10:00 a.m."},{"hora":"12:00 p.m."},{"hora":"2:00 p.m."},{"hora":"4:00 p.m."},{"hora":"6:00 p.m."},{"hora":"8:00 p.m."}]},{"id":4465564,"funciones":[{"hora":"8:00 a.m."},{"hora":"10:00 a.m."},{"hora":"12:00 p.m."},{"hora":"2:00 p.m."},{"hora":"4:00 p.m."}]}]}},
{"teatros":"Cine Colombia C.C. Plaza Central","teatro":{"peliculas":[{"id":4116284,"funciones":[{"hora":"8:00 a.m."},{"hora":"10:00 a.m."},{"hora":"12:00 p.m."},{"hora":"2:00 p.m."},{"hora":"4:00 p.m."},{"hora":"6:00 p.m."},{"hora":"8:00 p.m."}]},{"id":2072233,"funciones":[{"hora":"8:00 a.m."},{"hora":"10:00 a.m."},{"hora":"12:00 p.m."},{"hora":"2:00 p.m."},{"hora":"4:00 p.m."}]},{"id":4217392,"funciones":[{"hora":"8:00 a.m."},{"hora":"10:00 a.m."},{"hora":"12:00 p.m."},{"hora":"2:00 p.m."},{"hora":"4:00 p.m."},{"hora":"6:00 p.m."}]},{"id":3462710,"funciones":[{"hora":"8:00 a.m."},{"hora":"10:00 a.m."},{"hora":"12:00 p.m."},{"hora":"2:00 p.m."},{"hora":"4:00 p.m."},{"hora":"6:00 p.m."},{"hora":"8:00 p.m."},{"hora":"10:00 p.m."}]},{"id":1730768,"funciones":[{"hora":"8:00 a.m."},{"hora":"10:00 a.m."},{"hora":"12:00 p.m."},{"hora":"2:00 p.m."},{"hora":"4:00 p.m."},{"hora":"6:00 p.m."}]},{"id":2072233,"funciones":[{"hora":"8:00 a.m."},{"hora":"10:00 a.m."},{"hora":"12:00 p.m."},{"hora":"2:00 p.m."},{"hora":"4:00 p.m."},{"hora":"6:00 p.m."}]}]}},
{"teatros":"Cine Colombia Cedritos","teatro":{"peliculas":[{"id":3462710,"funciones":[{"hora":"8:00 a.m."},{"hora":"10:00 a.m."},{"hora":"12:00 p.m."},{"hora":"2:00 p.m."},{"hora":"4:00 p.m."},{"hora":"6:00 p.m."}]},{"id":4465564,"funciones":[{"hora":"8:00 a.m."},{"hora":"10:00 a.m."},{"hora":"12:00 p.m."},{"hora":"2:00 p.m."}]},{"id":5155780,"funciones":[{"hora":"8:00 a.m."},{"hora":"10:00 a.m."},{"hora":"12:00 p.m."},{"hora":"2:00 p.m."},{"hora":"4:00 p.m."},{"hora":"6:00 p.m."},{"hora":"8:00 p.m."}]},{"id":3315342,"funciones":[{"hora":"8:00 a.m."},{"hora":"10:00 a.m."},{"hora":"12:00 p.m."},{"hora":"2:00 p.m."},{"hora":"4:00 p.m."},{"hora":"6:00 p.m."}]},{"id":2763304,"funciones":[{"hora":"8:00 a.m."},{"hora":"10:00 a.m."},{"hora":"12:00 p.m."},{"hora":"2:00 p.m."}]},{"id":2771200,"funciones":[{"hora":"8:00 a.m."},{"hora":"10:00 a.m."},{"hora":"12:00 p.m."},{"hora":"2:00 p.m."},{"hora":"4:00 p.m."},{"hora":"6:00 p.m."},{"hora":"8:00 p.m."},{"hora":"10:00 p.m."}]},{"id":5442430,"funciones":[{"hora":"8:00 a.m."},{"hora":"10:00 a.m."},{"hora":"12:00 p.m."},{"hora":"2:00 p.m."},{"hora":"4:00 p.m."},{"hora":"6:00 p.m."},{"hora":"8:00 p.m."}]},{"id":2568862,"funciones":[{"hora":"8:00 a.m."},{"hora":"10:00 a.m."},{"hora":"12:00 p.m."},{"hora":"2:00 p.m."},{"hora":"4:00 p.m."},{"hora":"6:00 p.m."}]}]}},
{"teatros":"Cine Colombia Centro Chía","teatro":{"peliculas":[{"id":5052448,"funciones":[{"hora":"8:00 a.m."},{"hora":"10:00 a.m."},{"hora":"12:00 p.m."},{"hora":"2:00 p.m."},{"hora":"4:00 p.m."},{"hora":"6:00 p.m."},{"hora":"8:00 p.m."}]},{"id":3171832,"funciones":[{"hora":"8:00 a.m."},{"hora":"10:00 a.m."},{"hora":"12:00 p.m."},{"hora":"2:00 p.m."},{"hora":"4:00 p.m."},{"hora":"6:00 p.m."},{"hora":"8:00 p.m."},{"hora":"10:00 p.m."}]},{"id":2398241,"funciones":[{"hora":"8:00 a.m."},{"hora":"10:00 a.m."},{"hora":"12:00 p.m."},{"hora":"2:00 p.m."},{"hora":"4:00 p.m."},{"hora":"6:00 p.m."},{"hora":"8:00 p.m."},{"hora":"10:00 p.m."}]},{"id":5155780,"funciones":[{"hora":"8:00 a.m."},{"hora":"10:00 a.m."},{"hora":"12:00 p.m."},{"hora":"2:00 p.m."},{"hora":"4:00 p.m."},{"hora":"6:00 p.m."},{"hora":"8:00 p.m."},{"hora":"10:00 p.m."}]},{"id":3874544,"funciones":[{"hora":"8:00 a.m."},{"hora":"10:00 a.m."},{"hora":"12:00 p.m."},{"hora":"2:00 p.m."},{"hora":"4:00 p.m."},{"hora":"6:00 p.m."},{"hora":"8:00 p.m."}]},{"id":3401882,"funciones":[{"hora":"8:00 a.m."},{"hora":"10:00 a.m."},{"hora":"12:00 p.m."},{"hora":"2:00 p.m."},{"hora":"4:00 p.m."}]}]}},
{"teatros":"Cine Colombia Centro Mayor","teatro":{"peliculas":[{"id":2771200,"funciones":[{"hora":"8:00 a.m."},{"hora":"10:00 a.m."},{"hora":"12:00 p.m."},{"hora":"2:00 p.m."},{"hora":"4:00 p.m."},{"hora":"6:00 p.m."},{"hora":"8:00 p.m."}]},{"id":2763304,"funciones":[{"hora":"8:00 a.m."},{"hora":"10:00 a.m."},{"hora":"12:00 p.m."},{"hora":"2:00 p.m."}]},{"id":3874544,"funciones":[{"hora":"8:00 a.m."},{"hora":"10:00 a.m."},{"hora":"12:00 p.m."},{"hora":"2:00 p.m."},{"hora":"4:00 p.m."},{"hora":"6:00 p.m."},{"hora":"8:00 p.m."},{"hora":"10:00 p.m."}]},{"id":3874544,"funciones":[{"hora":"8:00 a.m."},{"hora":"10:00 a.m."},{"hora":"12:00 p.m."},{"hora":"2:00 p.m."},{"hora":"4:00 p.m."},{"hora":"6:00 p.m."},{"hora":"8:00 p.m."}]},{"id":2398241,"funciones":[{"hora":"8:00 a.m."},{"hora":"10:00 a.m."},{"hora":"12:00 p.m."},{"hora":"2:00 p.m."}]}]}},
{"teatros":"Cine Colombia Embajador","teatro":{"peliculas":[{"id":1219827,"funciones":[{"hora":"8:00 a.m."},{"hora":"10:00 a.m."},{"hora":"12:00 p.m."},{"hora":"2:00 p.m."},{"hora":"4:00 p.m."}]},{"id":3922818,"funciones":[{"hora":"8:00 a.m."},{"hora":"10:00 a.m."},{"hora":"12:00 p.m."},{"hora":"2:00 p.m."},{"hora":"4:00 p.m."},{"hora":"6:00 p.m."},{"hora":"8:00 p.m."},{"hora":"10:00 p.m."}]},{"id":4481414,"funciones":[{"hora":"8:00 a.m."},{"hora":"10:00 a.m."},{"hora":"12:00 p.m."},{"hora":"2:00 p.m."},{"hora":"4:00 p.m."},{"hora":"6:00 p.m."},{"hora":"8:00 p.m."}]},{"id":3405236,"funciones":[{"hora":"8:00 a.m."},{"hora":"10:00 a.m."},{"hora":"12:00 p.m."},{"hora":"2:00 p.m."}]},{"id":5710514,"funciones":[{"hora":"8:00 a.m."},{"hora":"10:00 a.m."},{"hora":"12:00 p.m."},{"hora":"2:00 p.m."},{"hora":"4:00 p.m."},{"hora":"6:00 p.m."},{"hora":"8:00 p.m."}]},{"id":3171832,"funciones":[{"hora":"8:00 a.m."},{"hora":"10:00 a.m."},{"hora":"12:00 p.m."},{"hora":"2:00 p.m."}]},{"id":3405236,"funciones":[{"hora":"8:00 a.m."},{"hora":"10:00 a.m."},{"hora":"12:00 p.m."},{"hora":"2:00 p.m."}]},{"id":2072233,"funciones":[{"hora":"8:00 a.m."},{"hora":"10:00 a.m."},{"hora":"12:00 p.m."},{"hora":"2:00 p.m."},{"hora":"4:00 p.m."}]},{"id":3922818,"funciones":[{"hora":"8:00 a.m."},{"hora":"10:00 a.m."},{"hora":"12:00 p.m."},{"hora":"2:00 p.m."}]},{"id":5155780,"funciones":[{"hora":"8:00 a.m."},{"hora":"10:00 a.m."},{"hora":"12:00 p.m."},{"hora":"2:00 p.m."},{"hora":"4:00 p.m."},{"hora":"6:00 p.m."},{"hora":"8:00 p.m."}]}]}},
{"teatros":"Cine Colombia Galerías","teatro":{"peliculas":[{"id":5710514,"funciones":[{"hora":"8:00 a.m."},{"hora":"10:00 a.m."},{"hora":"12:00 p.m."},{"hora":"2:00 p.m."}]},{"id":4217392,"funciones":[{"hora":"8:00 a.m."},{"hora":"10:00 a.m."},{"hora":"12:00 p.m."},{"hora":"2:00 p.m."}]},{"id":1730768,"funciones":[{"hora":"8:00 a.m."},{"hora":"10:00 a.m."},{"hora":"12:00 p.m."},{"hora":"2:00 p.m."},{"hora":"4:00 p.m."},{"hora":"6:00 p.m."},{"hora":"8:00 p.m."},{"hora":"10:00 p.m."}]},{"id":5982852,"funciones":[{"hora":"8:00 a.m."},{"hora":"10:00 a.m."},{"hora":"12:00 p.m."},{"hora":"2:00 p.m."},{"hora":"4:00 p.m."},{"hora":"6:00 p.m."},{"hora":"8:00 p.m."},{"hora":"10:00 p.m."}]},{"id":5460276,"funciones":[{"hora":"8:00 a.m."},{"hora":"10:00 a.m."},{"hora":"12:00 p.m."},{"hora":"2:00 p.m."},{"hora":"4:00 p.m."},{"hora":"6:00 p.m."},{"hora":"8:00 p.m."}]},{"id":4030600,"funciones":[{"hora":"8:00 a.m."},{"hora":"10:00 a.m."},{"hora":"12:00 p.m."},{"hora":"2:00 p.m."}]},{"id":3401882,"funciones":[{"hora":"8:00 a.m."},{"hora":"10:00 a.m."},{"hora":"12:00 p.m."},{"hora":"2:00 p.m."},{"hora":"4:00 p.m."},{"hora":"6:00 p.m."},{"hora":"8:00 p.m."}]},{"id":4630562,"funciones":[{"hora":"8:00 a.m."},{"hora":"10:00 a.m."},{"hora":"12:00 p.m."},{"hora":"2:00 p.m."},{"hora":"4:00 p.m."}]}]}},
{"teatros":"Cine Colombia Gran Estación","teatro":{"peliculas":[{"id":3922818,"funciones":[{"hora":"8:00 a.m."},{"hora":"10:00 a.m."},{"hora":"12:00 p.m."},{"hora":"2:00 p.m."},{"hora":"4:00 p.m."},{"hora":"6:00 p.m."},{"hora":"8:00 p.m."}]},{"id":1730768,"funciones":[{"hora":"8:00 a.m."},{"hora":"10:00 a.m."},{"hora":"12:00 p.m."},{"hora":"2:00 p.m."},{"hora":"4:00 p.m."},{"hora":"6:00 p.m."},{"hora":"8:00 p.m."},{"hora":"10:00 p.m."}]},{"id":2568862,"funciones":[{"hora":"8:00 a.m."},{"hora":"10:00 a.m."},{"hora":"12:00 p.m."},{"hora":"2:00 p.m."}]},{"id":2763304,"funciones":[{"hora":"8:00 a.m."},{"hora":"10:00 a.m."},{"hora":"12:00 p.m."},{"hora":"2:00 p.m."},{"hora":"4:00 p.m."}]},{"id":1753383,"funciones":[{"hora":"8:00 a.m."},{"hora":"10:00 a.m."},{"hora":"12:00 p.m."},{"hora":"2:00 p.m."},{"hora":"4:00 p.m."},{"hora":"6:00 p.m."},{"hora":"8:00 p.m."},{"hora":"10:00 p.m."}]}]}},
{"teatros":"Cine Colombia Hacienda Santa Bárbara","teatro":{"peliculas":[{"id":2072233,"funciones":[{"hora":"8:00 a.m."},{"hora":"10:00 a.m."},{"hora":"12:00 p.m."},{"hora":"2:00 p.m."}]},{"id":4465564,"funciones":[{"hora":"8:00 a.m."},{"hora":"10:00 a.m."},{"hora":"12:00 p.m."},{"hora":"2:00 p.m."},{"hora":"4:00 p.m."},{"hora":"6:00 p.m."},{"hora":"8:00 p.m."},{"hora":"10:00 p.m."}]},{"id":498381,"funciones":[{"hora":"8:00 a.m."},{"hora":"10:00 a.m."},{"hora":"12:00 p.m."},{"hora":"2:00 p.m."},{"hora":"4:00 p.m."},{"hora":"6:00 p.m."},{"hora":"8:00 p.m."}]},{"id":3315342,"funciones":[{"hora":"8:00 a.m."},{"hora":"10:00 a.m."},{"hora":"12:00 p.m."},{"hora":"2:00 p.m."},{"hora":"4:00 p.m."},{"hora":"6:00 p.m."},{"hora":"8:00 p.m."}]},{"id":3896198,"funciones":[{"hora":"8:00 a.m."},{"hora":"10:00 a.m."},{"hora":"12:00 p.m."},{"hora":"2:00 p.m."},{"hora":"4:00 p.m."},{"hora":"6:00 p.m."},{"hora":"8:00 p.m."}]},{"id":1691916,"funciones":[{"hora":"8:00 a.m."},{"hora":"10:00 a.m."},{"hora":"12:00 p.m."},{"hora":"2:00 p.m."},{"hora":"4:00 p.m."}]},{"id":3171832,"funciones":[{"hora":"8:00 a.m."},{"hora":"10:00 a.m."},{"hora":"12:00 p.m."},{"hora":"2:00 p.m."},{"hora":"4:00 p.m."},{"hora":"6:00 p.m."},{"hora":"8:00 p.m."},{"hora":"10:00 p.m."}]},{"id":3896198,"funciones":[{"hora":"8:00 a.m."},{"hora":"10:00 a.m."},{"hora":"12:00 p.m."},{"hora":"2:00 p.m."}]},{"id":1219827,"funciones":[{"hora":"8:00 a.m."},{"hora":"10:00 a.m."},{"hora":"12:00 p.m."},{"hora":"2:00 p.m."},{"hora":"4:00 p.m."}]},{"id":4849438,"funciones":[{"hora":"8:00 a.m."},{"hora":"10:00 a.m."},{"hora":"12:00 p.m."},{"hora":"2:00 p.m."},{"hora":"4:00 p.m."},{"hora":"6:00 p.m."},{"hora":"8:00 p.m."},{"hora":"10:00 p.m."}]}]}},
{"teatros":"Cine Colombia Iserra 100","teatro":{"peliculas":[{"id":5710514,"funciones":[{"hora":"8:00 a.m."},{"hora":"10:00 a.m."},{"hora":"12:00 p.m."},{"hora":"2:00 p.m."},{"hora":"4:00 p.m."},{"hora":"6:00 p.m."}]},{"id":1730768,"funciones":[{"hora":"8:00 a.m."},{"hora":"10:00 a.m."},{"hora":"12:00 p.m."},{"hora":"2:00 p.m."},{"hora":"4:00 p.m."}]},{"id":5607714,"funciones":[{"hora":"8:00 a.m."},{"hora":"10:00 a.m."},{"hora":"12:00 p.m."},{"hora":"2:00 p.m."},{"hora":"4:00 p.m."}]},{"id":1753383,"funciones":[{"hora":"8:00 a.m."},{"hora":"10:00 a.m."},{"hora":"12:00 p.m."},{"hora":"2:00 p.m."},{"hora":"4:00 p.m."}]}]}},
{"teatros":"Cine Colombia Las Américas","teatro":{"peliculas":[{"id":5460276,"funciones":[{"hora":"8:00 a.m."},{"hora":"10:00 a.m."},{"hora":"12:00 p.m."},{"hora":"2:00 p.m."},{"hora":"4:00 p.m."}]},{"id":2568862,"funciones":[{"hora":"8:00 a.m."},{"hora":"10:00 a.m."},{"hora":"12:00 p.m."},{"hora":"2:00 p.m."},{"hora":"4:00 p.m."},{"hora":"6:00 p.m."},{"hora":"8:00 p.m."}]},{"id":4287320,"funciones":[{"hora":"8:00 a.m."},{"hora":"10:00 a.m."},{"hora":"12:00 p.m."},{"hora":"2:00 p.m."}]},{"id":4849438,"funciones":[{"hora":"8:00 a.m."},{"hora":"10:00 a.m."},{"hora":"12:00 p.m."},{"hora":"2:00 p.m."},{"hora":"4:00 p.m."},{"hora":"6:00 p.m."}]},{"id":3401882,"funciones":[{"hora":"8:00 a.m."},{"hora":"10:00 a.m."},{"hora":"12:00 p.m."},{"hora":"2:00 p.m."},{"hora":"4:00 p.m."}]},{"id":493405,"funciones":[{"hora":"8:00 a.m."},{"hora":"10:00 a.m."},{"hora":"12:00 p.m."},{"hora":"2:00 p.m."},{"hora":"4:00 p.m."},{"hora":"6:00 p.m."}]}]}},
{"teatros":"Cine Colombia Metrópolis","teatro":{"peliculas":[{"id":3171832,"funciones":[{"hora":"8:00 a.m."},{"hora":"10:00 a.m."},{"hora":"12:00 p.m."},{"hora":"2:00 p.m."},{"hora":"4:00 p.m."},{"hora":"6:00 p.m."},{"hora":"8:00 p.m."},{"hora":"10:00 p.m."}]},{"id":1730768,"funciones":[{"hora":"8:00 a.m."},{"hora":"10:00 a.m."},{"hora":"12:00 p.m."},{"hora":"2:00 p.m."}]},{"id":5460276,"funciones":[{"hora":"8:00 a.m."},{"hora":"10:00 a.m."},{"hora":"12:00 p.m."},{"hora":"2:00 p.m."},{"hora":"4:00 p.m."},{"hora":"6:00 p.m."},{"hora":"8:00 p.m."}]},{"id":4425200,"funciones":[{"hora":"8:00 a.m."},{"hora":"10:00 a.m."},{"hora":"12:00 p.m."},{"hora":"2:00 p.m."},{"hora":"4:00 p.m."},{"hora":"6:00 p.m."},{"hora":"8:00 p.m."},{"hora":"10:00 p.m."}]},{"id":3922818,"funciones":[{"hora":"8:00 a.m."},{"hora":"10:00 a.m."},{"hora":"12:00 p.m."},{"hora":"2:00 p.m."}]},{"id":5710514,"funciones":[{"hora":"8:00 a.m."},{"hora":"10:00 a.m."},{"hora":"12:00 p.m."},{"hora":"2:00 p.m."},{"hora":"4:00 p.m."},{"hora":"6:00 p.m."},{"hora":"8:00 p.m."},{"hora":"10:00 p.m."}]},{"id":5155780,"funciones":[{"hora":"8:00 a.m."},{"hora":"10:00 a.m."},{"hora":"12:00 p.m."},{"hora":"2:00 p.m."},{"hora":"4:00 p.m."},{"hora":"6:00 p.m."}]},{"id":4581576,"funciones":[{"hora":"8:00 a.m."},{"hora":"10:00 a.m."},{"hora":"12:00 p.m."},{"hora":"2:00 p.m."},{"hora":"4:00 p.m."},{"hora":"6:00 p.m."}]}]}},
{"teatros":"Cine Colombia Portal 80","teatro":{"peliculas":[{"id":4481414,"funciones":[{"hora":"8:00 a.m."},{"hora":"10:00 a.m."},{"hora":"12:00 p.m."},{"hora":"2:00 p.m."},{"hora":"4:00 p.m."}]},{"id":493405,"funciones":[{"hora":"8:00 a.m."},{"hora":"10:00 a.m."},{"hora":"12:00 p.m."},{"hora":"2:00 p.m."},{"hora":"4:00 p.m."},{"hora":"6:00 p.m."}]},{"id":4581576,"funciones":[{"hora":"8:00 a.m."},{"hora":"10:00 a.m."},{"hora":"12:00 p.m."},{"hora":"2:00 p.m."},{"hora":"4:00 p.m."},{"hora":"6:00 p.m."}]},{"id":5155780,"funciones":[{"hora":"8:00 a.m."},{"hora":"10:00 a.m."},{"hora":"12:00 p.m."},{"hora":"2:00 p.m."},{"hora":"4:00 p.m."},{"hora":"6:00 p.m."}]},{"id":498381,"funciones":[{"hora":"8:00 a.m."},{"hora":"10:00 a.m."},{"hora":"12:00 p.m."},{"hora":"2:00 p.m."},{"hora":"4:00 p.m."},{"hora":"6:00 p.m."}]}]}},
{"teatros":"Cine Colombia Portoalegre","teatro":{"peliculas":[{"id":3462710,"funciones":[{"hora":"8:00 a.m."},{"hora":"10:00 a.m."},{"hora":"12:00 p.m."},{"hora":"2:00 p.m."},{"hora":"4:00 p.m."}]},{"id":5607714,"funciones":[{"hora":"8:00 a.m."},{"hora":"10:00 a.m."},{"hora":"12:00 p.m."},{"hora":"2:00 p.m."},{"hora":"4:00 p.m."},{"hora":"6:00 p.m."}]},{"id":3462710,"funciones":[{"hora":"8:00 a.m."},{"hora":"10:00 a.m."},{"hora":"12:00 p.m."},{"hora":"2:00 p.m."}]},{"id":2072233,"funciones":[{"hora":"8:00 a.m."},{"hora":"10:00 a.m."},{"hora":"12:00 p.m."},{"hora":"2:00 p.m."},{"hora":"4:00 p.m."},{"hora":"6:00 p.m."},{"hora":"8:00 p.m."}]}]}},
{"teatros":"Cine Colombia Santafé","teatro":{"peliculas":[{"id":2398241,"funciones":[{"hora":"8:00 a.m."},{"hora":"10:00 a.m."},{"hora":"12:00 p.m."},{"hora":"2:00 p.m."},{"hora":"4:00 p.m."},{"hora":"6:00 p.m."},{"hora":"8:00 p.m."}]},{"id":3731562,"funciones":[{"hora":"8:00 a.m."},{"hora":"10:00 a.m."},{"hora":"12:00 p.m."},{"hora":"2:00 p.m."},{"hora":"4:00 p.m."},{"hora":"6:00 p.m."},{"hora":"8:00 p.m."},{"hora":"10:00 p.m."}]},{"id":4287320,"funciones":[{"hora":"8:00 a.m."},{"hora":"10:00 a.m."},{"hora":"12:00 p.m."},{"hora":"2:00 p.m."},{"hora":"4:00 p.m."}]},{"id":4287320,"funciones":[{"hora":"8:00 a.m."},{"hora":"10:00 a.m."},{"hora":"12:00 p.m."},{"hora":"2:00 p.m."},{"hora":"4:00 p.m."}]},{"id":3171832,"funciones":[{"hora":"8:00 a.m."},{"hora":"10:00 a.m."},{"hora":"12:00 p.m."},{"hora":"2:00 p.m."},{"hora":"4:00 p.m."},{"hora":"6:00 p.m."}]},{"id":2771200,"funciones":[{"hora":"8:00 a.m."},{"hora":"10:00 a.m."},{"hora":"12:00 p.m."},{"hora":"2:00 p.m."}]},{"id":3717490,"funciones":[{"hora":"8:00 a.m."},{"hora":"10:00 a.m."},{"hora":"12:00 p.m."},{"hora":"2:00 p.m."},{"hora":"4:00 p.m."},{"hora":"6:00 p.m."}]},{"id":1691916,"funciones":[{"hora":"8:00 a.m."},{"hora":"10:00 a.m."},{"hora":"12:00 p.m."},{"hora":"2:00 p.m."}]}]}},
{"teatros":"Cine Colombia Titán Plaza","teatro":{"peliculas":[{"id":5460276,"funciones":[{"hora":"8:00 a.m."},{"hora":"10:00 a.m."},{"hora":"12:00 p.m."},{"hora":"2:00 p.m."},{"hora":"4:00 p.m."},{"hora":"6:00 p.m."},{"hora":"8:00 p.m."},{"hora":"10:00 p.m."}]},{"id":3315342,"funciones":[{"hora":"8:00 a.m."},{"hora":"10:00 a.m."},{"hora":"12:00 p.m."},{"hora":"2:00 p.m."},{"hora":"4:00 p.m."},{"hora":"6:00 p.m."},{"hora":"8:00 p.m."},{"hora":"10:00 p.m."}]},{"id":2582576,"funciones":[{"hora":"8:00 a.m."},{"hora":"10:00 a.m."},{"hora":"12:00 p.m."},{"hora":"2:00 p.m."},{"hora":"4:00 p.m."},{"hora":"6:00 p.m."}]},{"id":5982852,"funciones":[{"hora":"8:00 a.m."},{"hora":"10:00 a.m."},{"hora":"12:00 p.m."},{"hora":"2:00 p.m."},{"hora":"4:00 p.m."},{"hora":"6:00 p.m."}]},{"id":1293847,"funciones":[{"hora":"8:00 a.m."},{"hora":"10:00 a.m."},{"hora":"12:00 p.m."},{"hora":"2:00 p.m."},{"hora":"4:00 p.m."},{"hora":"6:00 p.m."},{"hora":"8:00 p.m."}]},{"id":4630562,"funciones":[{"hora":"8:00 a.m."},{"hora":"10:00 a.m."},{"hora":"12:00 p.m."},{"hora":"2:00 p.m."},{"hora":"4:00 p.m."},{"hora":"6:00 p.m."},{"hora":"8:00 p.m."},{"hora":"10:00 p.m."}]}]}},
{"teatros":"Cine Colombia Unicentro","teatro":{"peliculas":[{"id":3896198,"funciones":[{"hora":"8:00 a.m."},{"hora":"10:00 a.m."},{"hora":"12:00 p.m."},{"hora":"2:00 p.m."},{"hora":"4:00 p.m."}]},{"id":1219827,"funciones":[{"hora":"8:00 a.m."},{"hora":"10:00 a.m."},{"hora":"12:00 p.m."},{"hora":"2:00 p.m."},{"hora":"4:00 p.m."},{"hora":"6:00 p.m."}]},{"id":3315342,"funciones":[{"hora":"8:00 a.m."},{"hora":"10:00 a.m."},{"hora":"12:00 p.m."},{"hora":"2:00 p.m."},{"hora":"4:00 p.m."},{"hora":"6:00 p.m."},{"hora":"8:00 p.m."}]},{"id":2582576,"funciones":[{"hora":"8:00 a.m."},{"hora":"10:00 a.m."},{"hora":"12:00 p.m."},{"hora":"2:00 p.m."},{"hora":"4:00 p.m."},{"hora":"6:00 p.m."},{"hora":"8:00 p.m."}]},{"id":2763304,"funciones":[{"hora":"8:00 a.m."},{"hora":"10:00 a.m."},{"hora":"12:00 p.m."},{"hora":"2:00 p.m."},{"hora":"4:00 p.m."},{"hora":"6:00 p.m."},{"hora":"8:00 p.m."}]},{"id":5460276,"funciones":[{"hora":"8:00 a.m."},{"hora":"10:00 a.m."},{"hora":"12:00 p.m."},{"hora":"2:00 p.m."},{"hora":"4:00 p.m."}]},{"id":3401882,"funciones":[{"hora":"8:00 a.m."},{"hora":"10:00 a.m."},{"hora":"12:00 p.m."},{"hora":"2:00 p.m."},{"hora":"4:00 p.m."},{"hora":"6:00 p.m."}]},{"id":3731562,"funciones":[{"hora":"8:00 a.m."},{"hora":"10:00 a.m."},{"hora":"12:00 p.m."},{"hora":"2:00 p.m."},{"hora":"4:00 p.m."},{"hora":"6:00 p.m."},{"hora":"8:00 p.m."}]},{"id":1293847,"funciones":[{"hora":"8:00 a.m."},{"hora":"10:00 a.m."},{"hora":"12:00 p.m."},{"hora":"2:00 p.m."},{"hora":"4:00 p.m."},{"hora":"6:00 p.m."},{"hora":"8:00 p.m."}]}]}},
{"teatros":"Cineland Mi Centro","teatro":{"peliculas":[{"id":1753383,"funciones":[{"hora":"8:00 a.m."},{"hora":"10:00 a.m."},{"hora":"12:00 p.m."},{"hora":"2:00 p.m."},{"hora":"4:00 p.m."},{"hora":"6:00 p.m."},{"hora":"8:00 p.m."}]},{"id":4481414,"funciones":[{"hora":"8:00 a.m."},{"hora":"10:00 a.m."},{"hora":"12:00 p.m."},{"hora":"2:00 p.m."},{"hora":"4:00 p.m."},{"hora":"6:00 p.m."},{"hora":"8:00 p.m."},{"hora":"10:00 p.m."}]},{"id":498381,"funciones":[{"hora":"8:00 a.m."},{"hora":"10:00 a.m."},{"hora":"12:00 p.m."},{"hora":"2:00 p.m."}]},{"id":4217392,"funciones":[{"hora":"8:00 a.m."},{"hora":"10:00 a.m."},{"hora":"12:00 p.m."},{"hora":"2:00 p.m."},{"hora":"4:00 p.m."}]},{"id":1219827,"funciones":[{"hora":"8:00 a.m."},{"hora":"10:00 a.m."},{"hora":"12:00 p.m."},{"hora":"2:00 p.m."},{"hora":"4:00 p.m."},{"hora":"6:00 p.m."},{"hora":"8:00 p.m."},{"hora":"10:00 p.m."}]},{"id":4287320,"funciones":[{"hora":"8:00 a.m."},{"hora":"10:00 a.m."},{"hora":"12:00 p.m."},{"hora":"2:00 p.m."},{"hora":"4:00 p.m."}]},{"id":2398241,"funciones":[{"hora":"8:00 a.m."},{"hora":"10:00 a.m."},{"hora":"12:00 p.m."},{"hora":"2:00 p.m."}]},{"id":3874544,"funciones":[{"hora":"8:00 a.m."},{"hora":"10:00 a.m."},{"hora":"12:00 p.m."},{"hora":"2:00 p.m."},{"hora":"4:00 p.m."},{"hora":"6:00 p.m."},{"hora":"8:00 p.m."}]},{"id":3731562,"funciones":[{"hora":"8:00 a.m."},{"hora":"10:00 a.m."},{"hora":"12:00 p.m."},{"hora":"2:00 p.m."}]}]}},
{"teatros":"Cinema Paraíso","teatro":{"peliculas":[{"id":4030600,"funciones":[{"hora":"8:00 a.m."},{"hora":"10:00 a.m."},{"hora":"12:00 p.m."},{"hora":"2:00 p.m."},{"hora":"4:00 p.m."},{"hora":"6:00 p.m."},{"hora":"8:00 p.m."},{"hora":"10:00 p.m."}]},{"id":2582576,"funciones":[{"hora":"8:00 a.m."},{"hora":"10:00 a.m."},{"hora":"12:00 p.m."},{"hora":"2:00 p.m."}]},{"id":5607714,"funciones":[{"hora":"8:00 a.m."},{"hora":"10:00 a.m."},{"hora":"12:00 p.m."},{"hora":"2:00 p.m."},{"hora":"4:00 p.m."},{"hora":"6:00 p.m."},{"hora":"8:00 p.m."}]},{"id":3717490,"funciones":[{"hora":"8:00 a.m."},{"hora":"10:00 a.m."},{"hora":"12:00 p.m."},{"hora":"2:00 p.m."},{"hora":"4:00 p.m."},{"hora":"6:00 p.m."}]},{"id":4481414,"funciones":[{"hora":"8:00 a.m."},{"hora":"10:00 a.m."},{"hora":"12:00 p.m."},{"hora":"2:00 p.m."},{"hora":"4:00 p.m."},{"hora":"6:00 p.m."},{"hora":"8:00 p.m."},{"hora":"10:00 p.m."}]},{"id":5982852,"funciones":[{"hora":"8:00 a.m."},{"hora":"10:00 a.m."},{"hora":"12:00 p.m."},{"hora":"2:00 p.m."}]}]}},
{"teatros":"Cinemanía","teatro":{"peliculas":[{"id":5982852,"funciones":[{"hora":"8:00 a.m."},{"hora":"10:00 a.m."},{"hora":"12:00 p.m."},{"hora":"2:00 p.m."},{"hora":"4:00 p.m."},{"hora":"6:00 p.m."},{"hora":"8:00 p.m."},{"hora":"10:00 p.m."}]},{"id":3462710,"funciones":[{"hora":"8:00 a.m."},{"hora":"10:00 a.m."},{"hora":"12:00 p.m."},{"hora":"2:00 p.m."},{"hora":"4:00 p.m."},{"hora":"6:00 p.m."},{"hora":"8:00 p.m."}]},{"id":5607714,"funciones":[{"hora":"8:00 a.m."},{"hora":"10:00 a.m."},{"hora":"12:00 p.m."},{"hora":"2:00 p.m."},{"hora":"4:00 p.m."},{"hora":"6:00 p.m."},{"hora":"8:00 p.m."},{"hora":"10:00 p.m."}]},{"id":3401882,"funciones":[{"hora":"8:00 a.m."},{"hora":"10:00 a.m."},{"hora":"12:00 p.m."},{"hora":"2:00 p.m."}]},{"id":4030600,"funciones":[{"hora":"8:00 a.m."},{"hora":"10:00 a.m."},{"hora":"12:00 p.m."},{"hora":"2:00 p.m."},{"hora":"4:00 p.m."},{"hora":"6:00 p.m."},{"hora":"8:00 p.m."}]},{"id":3922818,"funciones":[{"hora":"8:00 a.m."},{"hora":"10:00 a.m."},{"hora":"12:00 p.m."},{"hora":"2:00 p.m."},{"hora":"4:00 p.m."},{"hora":"6:00 p.m."},{"hora":"8:00 p.m."}]}]}},
{"teatros":"Cinemark Atlantis","teatro":{"peliculas":[{"id":4030600,"funciones":[{"hora":"8:00 a.m."},{"hora":"10:00 a.m."},{"hora":"12:00 p.m."},{"hora":"2:00 p.m."},{"hora":"4:00 p.m."}]},{"id":4287320,"funciones":[{"hora":"8:00 a.m."},{"hora":"10:00 a.m."},{"hora":"12:00 p.m."},{"hora":"2:00 p.m."},{"hora":"4:00 p.m."},{"hora":"6:00 p.m."},{"hora":"8:00 p.m."},{"hora":"10:00 p.m."}]},{"id":1691916,"funciones":[{"hora":"8:00 a.m."},{"hora":"10:00 a.m."},{"hora":"12:00 p.m."},{"hora":"2:00 p.m."},{"hora":"4:00 p.m."},{"hora":"6:00 p.m."},{"hora":"8:00 p.m."}]},{"id":3874544,"funciones":[{"hora":"8:00 a.m."},{"hora":"10:00 a.m."},{"hora":"12:00 p.m."},{"hora":"2:00 p.m."},{"hora":"4:00 p.m."}]},{"id":3874544,"funciones":[{"hora":"8:00 a.m."},{"hora":"10:00 a.m."},{"hora":"12:00 p.m."},{"hora":"2:00 p.m."},{"hora":"4:00 p.m."}]},{"id":4425200,"funciones":[{"hora":"8:00 a.m."},{"hora":"10:00 a.m."},{"hora":"12:00 p.m."},{"hora":"2:00 p.m."},{"hora":"4:00 p.m."},{"hora":"6:00 p.m."},{"hora":"8:00 p.m."}]},{"id":3462710,"funciones":[{"hora":"8:00 a.m."},{"hora":"10:00 a.m."},{"hora":"12:00 p.m."},{"hora":"2:00 p.m."},{"hora":"4:00 p.m."}]}]}},
{"teatros":"Cinemark Cafam Floresta","teatro":{"peliculas":[{"id":2771200,"funciones":[{"hora":"8:00 a.m."},{"hora":"10:00 a.m."},{"hora":"12:00 p.m."},{"hora":"2:00 p.m."}]},{"id":2763304,"funciones":[{"hora":"8:00 a.m."},{"hora":"10:00 a.m."},{"hora":"12:00 p.m."},{"hora":"2:00 p.m."},{"hora":"4:00 p.m."},{"hora":"6:00 p.m."}]},{"id":4630562,"funciones":[{"hora":"8:00 a.m."},{"hora":"10:00 a.m."},{"hora":"12:00 p.m."},{"hora":"2:00 p.m."},{"hora":"4:00 p.m."}]},{"id":5155780,"funciones":[{"hora":"8:00 a.m."},{"hora":"10:00 a.m."},{"hora":"12:00 p.m."},{"hora":"2:00 p.m."},{"hora":"4:00 p.m."},{"hora":"6:00 p.m."}]},{"id":3717490,"funciones":[{"hora":"8:00 a.m."},{"hora":"10:00 a.m."},{"hora":"12:00 p.m."},{"hora":"2:00 p.m."}]},{"id":4116284,"funciones":[{"hora":"8:00 a.m."},{"hora":"10:00 a.m."},{"hora":"12:00 p.m."},{"hora":"2:00 p.m."},{"hora":"4:00 p.m."}]},{"id":4481414,"funciones":[{"hora":"8:00 a.m."},{"hora":"10:00 a.m."},{"hora":"12:00 p.m."},{"hora":"2:00 p.m."}]},{"id":2398241,"funciones":[{"hora":"8:00 a.m."},{"hora":"10:00 a.m."},{"hora":"12:00 p.m."},{"hora":"2:00 p.m."},{"hora":"4:00 p.m."},{"hora":"6:00 p.m."},{"hora":"8:00 p.m."},{"hora":"10:00 p.m."}]}]}},
{"teatros":"Cinemark MiCentro El Porvenir","teatro":{"peliculas":[{"id":5710514,"funciones":[{"hora":"8:00 a.m."},{"hora":"10:00 a.m."},{"hora":"12:00 p.m."},{"hora":"2:00 p.m."}]},{"id":4849438,"funciones":[{"hora":"8:00 a.m."},{"hora":"10:00 a.m."},{"hora":"12:00 p.m."},{"hora":"2:00 p.m."},{"hora":"4:00 p.m."},{"hora":"6:00 p.m."},{"hora":"8:00 p.m."}]},{"id":1219827,"funciones":[{"hora":"8:00 a.m."},{"hora":"10:00 a.m."},{"hora":"12:00 p.m."},{"hora":"2:00 p.m."},{"hora":"4:00 p.m."},{"hora":"6:00 p.m."},{"hora":"8:00 p.m."}]},{"id":4630562,"funciones":[{"hora":"8:00 a.m."},{"hora":"10:00 a.m."},{"hora":"12:00 p.m."},{"hora":"2:00 p.m."}]},{"id":3405236,"funciones":[{"hora":"8:00 a.m."},{"hora":"10:00 a.m."},{"hora":"12:00 p.m."},{"hora":"2:00 p.m."},{"hora":"4:00 p.m."},{"hora":"6:00 p.m."},{"hora":"8:00 p.m."}]},{"id":4465564,"funciones":[{"hora":"8:00 a.m."},{"hora":"10:00 a.m."},{"hora":"12:00 p.m."},{"hora":"2:00 p.m."},{"hora":"4:00 p.m."},{"hora":"6:00 p.m."},{"hora":"8:00 p.m."},{"hora":"10:00 p.m."}]},{"id":493405,"funciones":[{"hora":"8:00 a.m."},{"hora":"10:00 a.m."},{"hora":"12:00 p.m."},{"hora":"2:00 p.m."},{"hora":"4:00 p.m."},{"hora":"6:00 p.m."},{"hora":"8:00 p.m."},{"hora":"10:00 p.m."}]},{"id":4465564,"funciones":[{"hora":"8:00 a.m."},{"hora":"10:00 a.m."},{"hora":"12:00 p.m."},{"hora":"2:00 p.m."},{"hora":"4:00 p.m."},{"hora":"6:00 p.m."},{"hora":"8:00 p.m."}]},{"id":3462710,"funciones":[{"hora":"8:00 a.m."},{"hora":"10:00 a.m."},{"hora":"12:00 p.m."},{"hora":"2:00 p.m."},{"hora":"4:00 p.m."},{"hora":"6:00 p.m."}]},{"id":3171832,"funciones":[{"hora":"8:00 a.m."},{"hora":"10:00 a.m."},{"hora":"12:00 p.m."},{"hora":"2:00 p.m."},{"hora":"4:00 p.m."},{"hora":"6:00 p.m."},{"hora":"8:00 p.m."},{"hora":"10:00 p.m."}]}]}},
{"teatros":"Cinemark Plaza Imperial","teatro":{"peliculas":[{"id":1293847,"funciones":[{"hora":"8:00 a.m."},{"hora":"10:00 a.m."},{"hora":"12:00 p.m."},{"hora":"2:00 p.m."}]},{"id":5710514,"funciones":[{"hora":"8:00 a.m."},{"hora":"10:00 a.m."},{"hora":"12:00 p.m."},{"hora":"2:00 p.m."},{"hora":"4:00 p.m."}]},{"id":4481414,"funciones":[{"hora":"8:00 a.m."},{"hora":"10:00 a.m."},{"hora":"12:00 p.m."},{"hora":"2:00 p.m."},{"hora":"4:00 p.m."},{"hora":"6:00 p.m."},{"hora":"8:00 p.m."},{"hora":"10:00 p.m."}]},{"id":3874544,"funciones":[{"hora":"8:00 a.m."},{"hora":"10:00 a.m."},{"hora":"12:00 p.m."},{"hora":"2:00 p.m."}]},{"id":2771200,"funciones":[{"hora":"8:00 a.m."},{"hora":"10:00 a.m."},{"hora":"12:00 p.m."},{"hora":"2:00 p.m."},{"hora":"4:00 p.m."}]},{"id":3462710,"funciones":[{"hora":"8:00 a.m."},{"hora":"10:00 a.m."},{"hora":"12:00 p.m."},{"hora":"2:00 p.m."}]},{"id":4425200,"funciones":[{"hora":"8:00 a.m."},{"hora":"10:00 a.m."},{"hora":"12:00 p.m."},{"hora":"2:00 p.m."},{"hora":"4:00 p.m."}]}]}},
{"teatros":"Cinemark San Rafael","teatro":{"peliculas":[{"id":1219827,"funciones":[{"hora":"8:00 a.m."},{"hora":"10:00 a.m."},{"hora":"12:00 p.m."},{"hora":"2:00 p.m."}]},{"id":5155780,"funciones":[{"hora":"8:00 a.m."},{"hora":"10:00 a.m."},{"hora":"12:00 p.m."},{"hora":"2:00 p.m."},{"hora":"4:00 p.m."},{"hora":"6:00 p.m."},{"hora":"8:00 p.m."}]},{"id":4481414,"funciones":[{"hora":"8:00 a.m."},{"hora":"10:00 a.m."},{"hora":"12:00 p.m."},{"hora":"2:00 p.m."},{"hora":"4:00 p.m."}]},{"id":2568862,"funciones":[{"hora":"8:00 a.m."},{"hora":"10:00 a.m."},{"hora":"12:00 p.m."},{"hora":"2:00 p.m."},{"hora":"4:00 p.m."},{"hora":"6:00 p.m."},{"hora":"8:00 p.m."}]}]}},
{"teatros":"Cinemark Trébolis El Porvenir","teatro":{"peliculas":[{"id":4116284,"funciones":[{"hora":"8:00 a.m."},{"hora":"10:00 a.m."},{"hora":"12:00 p.m."},{"hora":"2:00 p.m."},{"hora":"4:00 p.m."}]},{"id":5710514,"funciones":[{"hora":"8:00 a.m."},{"hora":"10:00 a.m."},{"hora":"12:00 p.m."},{"hora":"2:00 p.m."},{"hora":"4:00 p.m."}]},{"id":3405236,"funciones":[{"hora":"8:00 a.m."},{"hora":"10:00 a.m."},{"hora":"12:00 p.m."},{"hora":"2:00 p.m."},{"hora":"4:00 p.m."},{"hora":"6:00 p.m."}]},{"id":5155780,"funciones":[{"hora":"8:00 a.m."},{"hora":"10:00 a.m."},{"hora":"12:00 p.m."},{"hora":"2:00 p.m."},{"hora":"4:00 p.m."}]},{"id":2582576,"funciones":[{"hora":"8:00 a.m."},{"hora":"10:00 a.m."},{"hora":"12:00 p.m."},{"hora":"2:00 p.m."},{"hora":"4:00 p.m."},{"hora":"6:00 p.m."},{"hora":"8:00 p.m."}]},{"id":2072233,"funciones":[{"hora":"8:00 a.m."},{"hora":"10:00 a.m."},{"hora":"12:00 p.m."},{"hora":"2:00 p.m."},{"hora":"4:00 p.m."}]}]}},
{"teatros":"Cinépolis Calima","teatro":{"peliculas":[{"id":4030600,"funciones":[{"hora":"8:00 a.m."},{"hora":"10:00 a.m."},{"hora":"12:00 p.m."},{"hora":"2:00 p.m."},{"hora":"4:00 p.m."},{"hora":"6:00 p.m."},{"hora":"8:00 p.m."},{"hora":"10:00 p.m."}]},{"id":3874544,"funciones":[{"hora":"8:00 a.m."},{"hora":"10:00 a.m."},{"hora":"12:00 p.m."},{"hora":"2:00 p.m."}]},{"id":4630562,"funciones":[{"hora":"8:00 a.m."},{"hora":"10:00 a.m."},{"hora":"12:00 p.m."},{"hora":"2:00 p.m."}]},{"id":4116284,"funciones":[{"hora":"8:00 a.m."},{"hora":"10:00 a.m."},{"hora":"12:00 p.m."},{"hora":"2:00 p.m."},{"hora":"4:00 p.m."},{"hora":"6:00 p.m."},{"hora":"8:00 p.m."},{"hora":"10:00 p.m."}]},{"id":4116284,"funciones":[{"hora":"8:00 a.m."},{"hora":"10:00 a.m."},{"hora":"12:00 p.m."},{"hora":"2:00 p.m."},{"hora":"4:00 p.m."},{"hora":"6:00 p.m."},{"hora":"8:00 p.m."}]}]}},
{"teatros":"Cinépolis Fontanar","teatro":{"peliculas":[{"id":4030600,"funciones":[{"hora":"8:00 a.m."},{"hora":"10:00 a.m."},{"hora":"12:00 p.m."},{"hora":"2:00 p.m."},{"hora":"4:00 p.m."},{"hora":"6:00 p.m."},{"hora":"8:00 p.m."},{"hora":"10:00 p.m."}]},{"id":3315342,"funciones":[{"hora":"8:00 a.m."},{"hora":"10:00 a.m."},{"hora":"12:00 p.m."},{"hora":"2:00 p.m."},{"hora":"4:00 p.m."}]},{"id":5982852,"funciones":[{"hora":"8:00 a.m."},{"hora":"10:00 a.m."},{"hora":"12:00 p.m."},{"hora":"2:00 p.m."},{"hora":"4:00 p.m."}]},{"id":1691916,"funciones":[{"hora":"8:00 a.m."},{"hora":"10:00 a.m."},{"hora":"12:00 p.m."},{"hora":"2:00 p.m."},{"hora":"4:00 p.m."},{"hora":"6:00 p.m."}]},{"id":3896198,"funciones":[{"hora":"8:00 a.m."},{"hora":"10:00 a.m."},{"hora":"12:00 p.m."},{"hora":"2:00 p.m."},{"hora":"4:00 p.m."},{"hora":"6:00 p.m."}]},{"id":2398241,"funciones":[{"hora":"8:00 a.m."},{"hora":"10:00 a.m."},{"hora":"12:00 p.m."},{"hora":"2:00 p.m."},{"hora":"4:00 p.m."}]},{"id":5607714,"funciones":[{"hora":"8:00 a.m."},{"hora":"10:00 a.m."},{"hora":"12:00 p.m."},{"hora":"2:00 p.m."},{"hora":"4:00 p.m."},{"hora":"6:00 p.m."}]},{"id":1730768,"funciones":[{"hora":"8:00 a.m."},{"hora":"10:00 a.m."},{"hora":"12:00 p.m."},{"hora":"2:00 p.m."},{"hora":"4:00 p.m."},{"hora":"6:00 p.m."},{"hora":"8:00 p.m."},{"hora":"10:00 p.m."}]}]}},
{"teatros":"Cinépolis Hayuelos","teatro":{"peliculas":[{"id":4481414,"funciones":[{"hora":"8:00 a.m."},{"hora":"10:00 a.m."},{"hora":"12:00 p.m."},{"hora":"2:00 p.m."},{"hora":"4:00 p.m."},{"hora":"6:00 p.m."},{"hora":"8:00 p.m."},{"hora":"10:00 p.m."}]},{"id":2763304,"funciones":[{"hora":"8:00 a.m."},{"hora":"10:00 a.m."},{"hora":"12:00 p.m."},{"hora":"2:00 p.m."}]},{"id":3896198,"funciones":[{"hora":"8:00 a.m."},{"hora":"10:00 a.m."},{"hora":"12:00 p.m."},{"hora":"2:00 p.m."}]},{"id":5052448,"funciones":[{"hora":"8:00 a.m."},{"hora":"10:00 a.m."},{"hora":"12:00 p.m."},{"hora":"2:00 p.m."},{"hora":"4:00 p.m."},{"hora":"6:00 p.m."},{"hora":"8:00 p.m."}]},{"id":2771200,"funciones":[{"hora":"8:00 a.m."},{"hora":"10:00 a.m."},{"hora":"12:00 p.m."},{"hora":"2:00 p.m."},{"hora":"4:00 p.m."}]},{"id":3171832,"funciones":[{"hora":"8:00 a.m."},{"hora":"10:00 a.m."},{"hora":"12:00 p.m."},{"hora":"2:00 p.m."},{"hora":"4:00 p.m."},{"hora":"6:00 p.m."},{"hora":"8:00 p.m."},{"hora":"10:00 p.m."}]},{"id":2568862,"funciones":[{"hora":"8:00 a.m."},{"hora":"10:00 a.m."},{"hora":"12:00 p.m."},{"hora":"2:00 p.m."}]}]}},
{"teatros":"Procinal - IMAX Plaza de las Américas","teatro":{"peliculas":[{"id":3405236,"funciones":[{"hora":"8:00 a.m."},{"hora":"10:00 a.m."},{"hora":"12:00 p.m."},{"hora":"2:00 p.m."},{"hora":"4:00 p.m."},{"hora":"6:00 p.m."},{"hora":"8:00 p.m."}]},{"id":5052448,"funciones":[{"hora":"8:00 a.m."},{"hora":"10:00 a.m."},{"hora":"12:00 p.m."},{"hora":"2:00 p.m."},{"hora":"4:00 p.m."},{"hora":"6:00 p.m."},{"hora":"8:00 p.m."}]},{"id":4030600,"funciones":[{"hora":"8:00 a.m."},{"hora":"10:00 a.m."},{"hora":"12:00 p.m."},{"hora":"2:00 p.m."},{"hora":"4:00 p.m."},{"hora":"6:00 p.m."},{"hora":"8:00 p.m."},{"hora":"10:00 p.m."}]},{"id":1730768,"funciones":[{"hora":"8:00 a.m."},{"hora":"10:00 a.m."},{"hora":"12:00 p.m."},{"hora":"2:00 p.m."}]},{"id":3401882,"funciones":[{"hora":"8:00 a.m."},{"hora":"10:00 a.m."},{"hora":"12:00 p.m."},{"hora":"2:00 p.m."},{"hora":"4:00 p.m."},{"hora":"6:00 p.m."},{"hora":"8:00 p.m."},{"hora":"10:00 p.m."}]},{"id":3922818,"funciones":[{"hora":"8:00 a.m."},{"hora":"10:00 a.m."},{"hora":"12:00 p.m."},{"hora":"2:00 p.m."}]},{"id":4481414,"funciones":[{"hora":"8:00 a.m."},{"hora":"10:00 a.m."},{"hora":"12:00 p.m."},{"hora":"2:00 p.m."},{"hora":"4:00 p.m."},{"hora":"6:00 p.m."}]},{"id":2771200,"funciones":[{"hora":"8:00 a.m."},{"hora":"10:00 a.m."},{"hora":"12:00 p.m."},{"hora":"2:00 p.m."},{"hora":"4:00 p.m."}]},{"id":5982852,"funciones":[{"hora":"8:00 a.m."},{"hora":"10:00 a.m."},{"hora":"12:00 p.m."},{"hora":"2:00 p.m."},{"hora":"4:00 p.m."}]},{"id":5460276,"funciones":[{"hora":"8:00 a.m."},{"hora":"10:00 a.m."},{"hora":"12:00 p.m."},{"hora":"2:00 p.m."},{"hora":"4:00 p.m."}]}]}},
{"teatros":"Procinal Bima","teatro":{"peliculas":[{"id":3315342,"funciones":[{"hora":"8:00 a.m."},{"hora":"10:00 a.m."},{"hora":"12:00 p.m."},{"hora":"2:00 p.m."},{"hora":"4:00 p.m."},{"hora":"6:00 p.m."},{"hora":"8:00 p.m."}]},{"id":2072233,"funciones":[{"hora":"8:00 a.m."},{"hora":"10:00 a.m."},{"hora":"12:00 p.m."},{"hora":"2:00 p.m."},{"hora":"4:00 p.m."},{"hora":"6:00 p.m."},{"hora":"8:00 p.m."}]},{"id":4287320,"funciones":[{"hora":"8:00 a.m."},{"hora":"10:00 a.m."},{"hora":"12:00 p.m."},{"hora":"2:00 p.m."},{"hora":"4:00 p.m."},{"hora":"6:00 p.m."},{"hora":"8:00 p.m."},{"hora":"10:00 p.m."}]},{"id":1293847,"funciones":[{"hora":"8:00 a.m."},{"hora":"10:00 a.m."},{"hora":"12:00 p.m."},{"hora":"2:00 p.m."},{"hora":"4:00 p.m."},{"hora":"6:00 p.m."},{"hora":"8:00 p.m."}]}]}},
{"teatros":"Procinal Bulevar Niza","teatro":{"peliculas":[{"id":1730768,"funciones":[{"hora":"8:00 a.m."},{"hora":"10:00 a.m."},{"hora":"12:00 p.m."},{"hora":"2:00 p.m."},{"hora":"4:00 p.m."},{"hora":"6:00 p.m."},{"hora":"8:00 p.m."},{"hora":"10:00 p.m."}]},{"id":2072233,"funciones":[{"hora":"8:00 a.m."},{"hora":"10:00 a.m."},{"hora":"12:00 p.m."},{"hora":"2:00 p.m."}]},{"id":2398241,"funciones":[{"hora":"8:00 a.m."},{"hora":"10:00 a.m."},{"hora":"12:00 p.m."},{"hora":"2:00 p.m."},{"hora":"4:00 p.m."}]},{"id":5155780,"funciones":[{"hora":"8:00 a.m."},{"hora":"10:00 a.m."},{"hora":"12:00 p.m."},{"hora":"2:00 p.m."},{"hora":"4:00 p.m."},{"hora":"6:00 p.m."}]},{"id":1293847,"funciones":[{"hora":"8:00 a.m."},{"hora":"10:00 a.m."},{"hora":"12:00 p.m."},{"hora":"2:00 p.m."}]},{"id":2568862,"funciones":[{"hora":"8:00 a.m."},{"hora":"10:00 a.m."},{"hora":"12:00 p.m."},{"hora":"2:00 p.m."},{"hora":"4:00 p.m."}]},{"id":2771200,"funciones":[{"hora":"8:00 a.m."},{"hora":"10:00 a.m."},{"hora":"12:00 p.m."},{"hora":"2:00 p.m."},{"hora":"4:00 p.m."},{"hora":"6:00 p.m."},{"hora":"8:00 p.m."},{"hora":"10:00 p.m."}]},{"id":3896198,"funciones":[{"hora":"8:00 a.m."},{"hora":"10:00 a.m."},{"hora":"12:00 p.m."},{"hora":"2:00 p.m."},{"hora":"4:00 p.m."}]}]}},
{"teatros":"Procinal Centro Suba","teatro":{"peliculas":[{"id":5052448,"funciones":[{"hora":"8:00 a.m."},{"hora":"10:00 a.m."},{"hora":"12:00 p.m."},{"hora":"2:00 p.m."},{"hora":"4:00 p.m."},{"hora":"6:00 p.m."}]},{"id":1293847,"funciones":[{"hora":"8:00 a.m."},{"hora":"10:00 a.m."},{"hora":"12:00 p.m."},{"hora":"2:00 p.m."},{"hora":"4:00 p.m."},{"hora":"6:00 p.m."},{"hora":"8:00 p.m."},{"hora":"10:00 p.m."}]},{"id":5710514,"funciones":[{"hora":"8:00 a.m."},{"hora":"10:00 a.m."},{"hora":"12:00 p.m."},{"hora":"2:00 p.m."},{"hora":"4:00 p.m."},{"hora":"6:00 p.m."}]},{"id":3405236,"funciones":[{"hora":"8:00 a.m."},{"hora":"10:00 a.m."},{"hora":"12:00 p.m."},{"hora":"2:00 p.m."},{"hora":"4:00 p.m."},{"hora":"6:00 p.m."},{"hora":"8:00 p.m."},{"hora":"10:00 p.m."}]},{"id":2568862,"funciones":[{"hora":"8:00 a.m."},{"hora":"10:00 a.m."},{"hora":"12:00 p.m."},{"hora":"2:00 p.m."},{"hora":"4:00 p.m."},{"hora":"6:00 p.m."},{"hora":"8:00 p.m."}]},{"id":1691916,"funciones":[{"hora":"8:00 a.m."},{"hora":"10:00 a.m."},{"hora":"12:00 p.m."},{"hora":"2:00 p.m."},{"hora":"4:00 p.m."},{"hora":"6:00 p.m."}]},{"id":1293847,"funciones":[{"hora":"8:00 a.m."},{"hora":"10:00 a.m."},{"hora":"12:00 p.m."},{"hora":"2:00 p.m."},{"hora":"4:00 p.m."}]}]}},
{"teatros":"Procinal Ciudad Tunal","teatro":{"peliculas":[{"id":2582576,"funciones":[{"hora":"8:00 a.m."},{"hora":"10:00 a.m."},{"hora":"12:00 p.m."},{"hora":"2:00 p.m."},{"hora":"4:00 p.m."},{"hora":"6:00 p.m."},{"hora":"8:00 p.m."}]},{"id":3874544,"funciones":[{"hora":"8:00 a.m."},{"hora":"10:00 a.m."},{"hora":"12:00 p.m."},{"hora":"2:00 p.m."},{"hora":"4:00 p.m."}]},{"id":3717490,"funciones":[{"hora":"8:00 a.m."},{"hora":"10:00 a.m."},{"hora":"12:00 p.m."},{"hora":"2:00 p.m."}]},{"id":3922818,"funciones":[{"hora":"8:00 a.m."},{"hora":"10:00 a.m."},{"hora":"12:00 p.m."},{"hora":"2:00 p.m."},{"hora":"4:00 p.m."},{"hora":"6:00 p.m."},{"hora":"8:00 p.m."}]},{"id":3896198,"funciones":[{"hora":"8:00 a.m."},{"hora":"10:00 a.m."},{"hora":"12:00 p.m."},{"hora":"2:00 p.m."},{"hora":"4:00 p.m."},{"hora":"6:00 p.m."},{"hora":"8:00 p.m."},{"hora":"10:00 p.m."}]},{"id":3405236,"funciones":[{"hora":"8:00 a.m."},{"hora":"10:00 a.m."},{"hora":"12:00 p.m."},{"hora":"2:00 p.m."},{"hora":"4:00 p.m."},{"hora":"6:00 p.m."}]},{"id":4630562,"funciones":[{"hora":"8:00 a.m."},{"hora":"10:00 a.m."},{"hora":"12:00 p.m."},{"hora":"2:00 p.m."},{"hora":"4:00 p.m."}]}]}},
{"teatros":"Procinal Palatino","teatro":{"peliculas":[{"id":3874544,"funciones":[{"hora":"8:00 a.m."},{"hora":"10:00 a.m."},{"hora":"12:00 p.m."},{"hora":"2:00 p.m."}]},{"id":5442430,"funciones":[{"hora":"8:00 a.m."},{"hora":"10:00 a.m."},{"hora":"12:00 p.m."},{"hora":"2:00 p.m."},{"hora":"4:00 p.m."},{"hora":"6:00 p.m."},{"hora":"8:00 p.m."},{"hora":"10:00 p.m."}]},{"id":4217392,"funciones":[{"hora":"8:00 a.m."},{"hora":"10:00 a.m."},{"hora":"12:00 p.m."},{"hora":"2:00 p.m."}]},{"id":3717490,"funciones":[{"hora":"8:00 a.m."},{"hora":"10:00 a.m."},{"hora":"12:00 p.m."},{"hora":"2:00 p.m."},{"hora":"4:00 p.m."},{"hora":"6:00 p.m."},{"hora":"8:00 p.m."},{"hora":"10:00 p.m."}]},{"id":3315342,"funciones":[{"hora":"8:00 a.m."},{"hora":"10:00 a.m."},{"hora":"12:00 p.m."},{"hora":"2:00 p.m."},{"hora":"4:00 p.m."}]},{"id":4849438,"funciones":[{"hora":"8:00 a.m."},{"hora":"10:00 a.m."},{"hora":"12:00 p.m."},{"hora":"2:00 p.m."},{"hora":"4:00 p.m."},{"hora":"6:00 p.m."},{"hora":"8:00 p.m."}]},{"id":2568862,"funciones":[{"hora":"8:00 a.m."},{"hora":"10:00 a.m."},{"hora":"12:00 p.m."},{"hora":"2:00 p.m."},{"hora":"4:00 p.m."}]},{"id":3731562,"funciones":[{"hora":"8:00 a.m."},{"hora":"10:00 a.m."},{"hora":"12:00 p.m."},{"hora":"2:00 p.m."}]}]}},
{"teatros":"Procinal Plaza de las Américas","teatro":{"peliculas":[{"id":1293847,"funciones":[{"hora":"8:00 a.m."},{"hora":"10:00 a.m."},{"hora":"12:00 p.m."},{"hora":"2:00 p.m."},{"hora":"4:00 p.m."}]},{"id":1293847,"funciones":[{"hora":"8:00 a.m."},{"hora":"10:00 a.m."},{"hora":"12:00 p.m."},{"hora":"2:00 p.m."},{"hora":"4:00 p.m."},{"hora":"6:00 p.m."},{"hora":"8:00 p.m."}]},{"id":4217392,"funciones":[{"hora":"8:00 a.m."},{"hora":"10:00 a.m."},{"hora":"12:00 p.m."},{"hora":"2:00 p.m."},{"hora":"4:00 p.m."}]},{"id":5460276,"funciones":[{"hora":"8:00 a.m."},{"hora":"10:00 a.m."},{"hora":"12:00 p.m."},{"hora":"2:00 p.m."},{"hora":"4:00 p.m."},{"hora":"6:00 p.m."},{"hora":"8:00 p.m."}]},{"id":498381,"funciones":[{"hora":"8:00 a.m."},{"hora":"10:00 a.m."},{"hora":"12:00 p.m."},{"hora":"2:00 p.m."},{"hora":"4:00 p.m."}]},{"id":2568862,"funciones":[{"hora":"8:00 a.m."},{"hora":"10:00 a.m."},{"hora":"12:00 p.m."},{"hora":"2:00 p.m."},{"hora":"4:00 p.m."},{"hora":"6:00 p.m."},{"hora":"8:00 p.m."}]},{"id":3315342,"funciones":[{"hora":"8:00 a.m."},{"hora":"10:00 a.m."},{"hora":"12:00 p.m."},{"hora":"2:00 p.m."},{"hora":"4:00 p.m."},{"hora":"6:00 p.m."},{"hora":"8:00 p.m."},{"hora":"10:00 p.m."}]},{"id":4849438,"funciones":[{"hora":"8:00 a.m."},{"hora":"10:00 a.m."},{"hora":"12:00 p.m."},{"hora":"2:00 p.m."},{"hora":"4:00 p.m."},{"hora":"6:00 p.m."},{"hora":"8:00 p.m."},{"hora":"10:00 p.m."}]}]}},
{"teatros":"Procinal Portal de la Sabana","teatro":{"peliculas":[{"id":3717490,"funciones":[{"hora":"8:00 a.m."},{"hora":"10:00 a.m."},{"hora":"12:00 p.m."},{"hora":"2:00 p.m."},{"hora":"4:00 p.m."},{"hora":"6:00 p.m."},{"hora":"8:00 p.m."}]},{"id":4849438,"funciones":[{"hora":"8:00 a.m."},{"hora":"10:00 a.m."},{"hora":"12:00 p.m."},{"hora":"2:00 p.m."},{"hora":"4:00 p.m."},{"hora":"6:00 p.m."},{"hora":"8:00 p.m."}]},{"id":1293847,"funciones":[{"hora":"8:00 a.m."},{"hora":"10:00 a.m."},{"hora":"12:00 p.m."},{"hora":"2:00 p.m."},{"hora":"4:00 p.m."},{"hora":"6:00 p.m."},{"hora":"8:00 p.m."}]},{"id":1293847,"funciones":[{"hora":"8:00 a.m."},{"hora":"10:00 a.m."},{"hora":"12:00 p.m."},{"hora":"2:00 p.m."},{"hora":"4:00 p.m."}]},{"id":5710514,"funciones":[{"hora":"8:00 a.m."},{"hora":"10:00 a.m."},{"hora":"12:00 p.m."},{"hora":"2:00 p.m."},{"hora":"4:00 p.m."},{"hora":"6:00 p.m."},{"hora":"8:00 p.m."}]},{"id":4630562,"funciones":[{"hora":"8:00 a.m."},{"hora":"10:00 a.m."},{"hora":"12:00 p.m."},{"hora":"2:00 p.m."},{"hora":"4:00 p.m."},{"hora":"6:00 p.m."},{"hora":"8:00 p.m."}]}]}},
{"teatros":"Procinal Salitre","teatro":{"peliculas":[{"id":2763304,"funciones":[{"hora":"8:00 a.m."},{"hora":"10:00 a.m."},{"hora":"12:00 p.m."},{"hora":"2:00 p.m."},{"hora":"4:00 p.m."},{"hora":"6:00 p.m."},{"hora":"8:00 p.m."},{"hora":"10:00 p.m."}]},{"id":5710514,"funciones":[{"hora":"8:00 a.m."},{"hora":"10:00 a.m."},{"hora":"12:00 p.m."},{"hora":"2:00 p.m."},{"hora":"4:00 p.m."}]},{"id":2582576,"funciones":[{"hora":"8:00 a.m."},{"hora":"10:00 a.m."},{"hora":"12:00 p.m."},{"hora":"2:00 p.m."},{"hora":"4:00 p.m."},{"hora":"6:00 p.m."}]},{"id":2763304,"funciones":[{"hora":"8:00 a.m."},{"hora":"10:00 a.m."},{"hora":"12:00 p.m."},{"hora":"2:00 p.m."},{"hora":"4:00 p.m."},{"hora":"6:00 p.m."},{"hora":"8:00 p.m."}]},{"id":1293847,"funciones":[{"hora":"8:00 a.m."},{"hora":"10:00 a.m."},{"hora":"12:00 p.m."},{"hora":"2:00 p.m."}]},{"id":2568862,"funciones":[{"hora":"8:00 a.m."},{"hora":"10:00 a.m."},{"hora":"12:00 p.m."},{"hora":"2:00 p.m."},{"hora":"4:00 p.m."},{"hora":"6:00 p.m."},{"hora":"8:00 p.m."}]},{"id":5460276,"funciones":[{"hora":"8:00 a.m."},{"hora":"10:00 a.m."},{"hora":"12:00 p.m."},{"hora":"2:00 p.m."},{"hora":"4:00 p.m."},{"hora":"6:00 p.m."}]}]}},
{"teatros":"Procinal Tintal Plaza","teatro":{"peliculas":[{"id":2072233,"funciones":[{"hora":"8:00 a.m."},{"hora":"10:00 a.m."},{"hora":"12:00 p.m."},{"hora":"2:00 p.m."},{"hora":"4:00 p.m."},{"hora":"6:00 p.m."},{"hora":"8:00 p.m."},{"hora":"10:00 p.m."}]},{"id":4481414,"funciones":[{"hora":"8:00 a.m."},{"hora":"10:00 a.m."},{"hora":"12:00 p.m."},{"hora":"2:00 p.m."},{"hora":"4:00 p.m."},{"hora":"6:00 p.m."}]},{"id":2771200,"funciones":[{"hora":"8:00 a.m."},{"hora":"10:00 a.m."},{"hora":"12:00 p.m."},{"hora":"2:00 p.m."},{"hora":"4:00 p.m."},{"hora":"6:00 p.m."},{"hora":"8:00 p.m."},{"hora":"10:00 p.m."}]},{"id":4217392,"funciones":[{"hora":"8:00 a.m."},{"hora":"10:00 a.m."},{"hora":"12:00 p.m."},{"hora":"2:00 p.m."},{"hora":"4:00 p.m."},{"hora":"6:00 p.m."},{"hora":"8:00 p.m."},{"hora":"10:00 p.m."}]},{"id":4581576,"funciones":[{"hora":"8:00 a.m."},{"hora":"10:00 a.m."},{"hora":"12:00 p.m."},{"hora":"2:00 p.m."}]},{"id":5052448,"funciones":[{"hora":"8:00 a.m."},{"hora":"10:00 a.m."},{"hora":"12:00 p.m."},{"hora":"2:00 p.m."},{"hora":"4:00 p.m."},{"hora":"6:00 p.m."},{"hora":"8:00 p.m."},{"hora":"10:00 p.m."}]}]}},
{"teatros":"Procinal Unicentro de Occidente","teatro":{"peliculas":[{"id":3731562,"funciones":[{"hora":"8:00 a.m."},{"hora":"10:00 a.m."},{"hora":"12:00 p.m."},{"hora":"2:00 p.m."},{"hora":"4:00 p.m."},{"hora":"6:00 p.m."}]},{"id":4217392,"funciones":[{"hora":"8:00 a.m."},{"hora":"10:00 a.m."},{"hora":"12:00 p.m."},{"hora":"2:00 p.m."}]},{"id":1219827,"funciones":[{"hora":"8:00 a.m."},{"hora":"10:00 a.m."},{"hora":"12:00 p.m."},{"hora":"2:00 p.m."}]},{"id":3874544,"funciones":[{"hora":"8:00 a.m."},{"hora":"10:00 a.m."},{"hora":"12:00 p.m."},{"hora":"2:00 p.m."},{"hora":"4:00 p.m."},{"hora":"6:00 p.m."}]},{"id":1691916,"funciones":[{"hora":"8:00 a.m."},{"hora":"10:00 a.m."},{"hora":"12:00 p.m."},{"hora":"2:00 p.m."},{"hora":"4:00 p.m."},{"hora":"6:00 p.m."},{"hora":"8:00 p.m."},{"hora":"10:00 p.m."}]},{"id":5460276,"funciones":[{"hora":"8:00 a.m."},{"hora":"10:00 a.m."},{"hora":"12:00 p.m."},{"hora":"2:00 p.m."},{"hora":"4:00 p.m."},{"hora":"6:00 p.m."},{"hora":"8:00 p.m."},{"hora":"10:00 p.m."}]},{"id":2771200,"funciones":[{"hora":"8:00 a.m."},{"hora":"10:00 a.m."},{"hora":"12:00 p.m."},{"hora":"2:00 p.m."},{"hora":"4:00 p.m."},{"hora":"6:00 p.m."},{"hora":"8:00 p.m."}]},{"id":4481414,"funciones":[{"hora":"8:00 a.m."},{"hora":"10:00 a.m."},{"hora":"12:00 p.m."},{"hora":"2:00 p.m."},{"hora":"4:00 p.m."},{"hora":"6:00 p.m."},{"hora":"8:00 p.m."}]}]}},
{"teatros":"Procinal Unisur","teatro":{"peliculas":[{"id":4465564,"funciones":[{"hora":"8:00 a.m."},{"hora":"10:00 a.m."},{"hora":"12:00 p.m."},{"hora":"2:00 p.m."},{"hora":"4:00 p.m."},{"hora":"6:00 p.m."}]},{"id":3171832,"funciones":[{"hora":"8:00 a.m."},{"hora":"10:00 a.m."},{"hora":"12:00 p.m."},{"hora":"2:00 p.m."},{"hora":"4:00 p.m."}]},{"id":3922818,"funciones":[{"hora":"8:00 a.m."},{"hora":"10:00 a.m."},{"hora":"12:00 p.m."},{"hora":"2:00 p.m."}]},{"id":4849438,"funciones":[{"hora":"8:00 a.m."},{"hora":"10:00 a.m."},{"hora":"12:00 p.m."},{"hora":"2:00 p.m."},{"hora":"4:00 p.m."},{"hora":"6:00 p.m."},{"hora":"8:00 p.m."}]},{"id":5460276,"funciones":[{"hora":"8:00 a.m."},{"hora":"10:00 a.m."},{"hora":"12:00 p.m."},{"hora":"2:00 p.m."}]}]}},
{"teatros":"Royal Films Altavista","teatro":{"peliculas":[{"id":5982852,"funciones":[{"hora":"8:00 a.m."},{"hora":"10:00 a.m."},{"hora":"12:00 p.m."},{"hora":"2:00 p.m."}]},{"id":3171832,"funciones":[{"hora":"8:00 a.m."},{"hora":"10:00 a.m."},{"hora":"12:00 p.m."},{"hora":"2:00 p.m."}]},{"id":4481414,"funciones":[{"hora":"8:00 a.m."},{"hora":"10:00 a.m."},{"hora":"12:00 p.m."},{"hora":"2:00 p.m."},{"hora":"4:00 p.m."}]},{"id":493405,"funciones":[{"hora":"8:00 a.m."},{"hora":"10:00 a.m."},{"hora":"12:00 p.m."},{"hora":"2:00 p.m."},{"hora":"4:00 p.m."},{"hora":"6:00 p.m."},{"hora":"8:00 p.m."},{"hora":"10:00 p.m."}]},{"id":1691916,"funciones":[{"hora":"8:00 a.m."},{"hora":"10:00 a.m."},{"hora":"12:00 p.m."},{"hora":"2:00 p.m."}]},{"id":3405236,"funciones":[{"hora":"8:00 a.m."},{"hora":"10:00 a.m."},{"hora":"12:00 p.m."},{"hora":"2:00 p.m."},{"hora":"4:00 p.m."}]}]}},
{"teatros":"Royal Films Eco Plaza","teatro":{"peliculas":[{"id":493405,"funciones":[{"hora":"8:00 a.m."},{"hora":"10:00 a.m."},{"hora":"12:00 p.m."},{"hora":"2:00 p.m."},{"hora":"4:00 p.m."},{"hora":"6:00 p.m."},{"hora":"8:00 p.m."}]},{"id":4425200,"funciones":[{"hora":"8:00 a.m."},{"hora":"10:00 a.m."},{"hora":"12:00 p.m."},{"hora":"2:00 p.m."}]},{"id":4481414,"funciones":[{"hora":"8:00 a.m."},{"hora":"10:00 a.m."},{"hora":"12:00 p.m."},{"hora":"2:00 p.m."},{"hora":"4:00 p.m."},{"hora":"6:00 p.m."}]},{"id":3922818,"funciones":[{"hora":"8:00 a.m."},{"hora":"10:00 a.m."},{"hora":"12:00 p.m."},{"hora":"2:00 p.m."},{"hora":"4:00 p.m."},{"hora":"6:00 p.m."},{"hora":"8:00 p.m."}]},{"id":5710514,"funciones":[{"hora":"8:00 a.m."},{"hora":"10:00 a.m."},{"hora":"12:00 p.m."},{"hora":"2:00 p.m."},{"hora":"4:00 p.m."},{"hora":"6:00 p.m."}]},{"id":4481414,"funciones":[{"hora":"8:00 a.m."},{"hora":"10:00 a.m."},{"hora":"12:00 p.m."},{"hora":"2:00 p.m."},{"hora":"4:00 p.m."},{"hora":"6:00 p.m."},{"hora":"8:00 p.m."}]},{"id":4425200,"funciones":[{"hora":"8:00 a.m."},{"hora":"10:00 a.m."},{"hora":"12:00 p.m."},{"hora":"2:00 p.m."},{"hora":"4:00 p.m."},{"hora":"6:00 p.m."}]},{"id":3731562,"funciones":[{"hora":"8:00 a.m."},{"hora":"10:00 a.m."},{"hora":"12:00 p.m."},{"hora":"2:00 p.m."}]},{"id":2763304,"funciones":[{"hora":"8:00 a.m."},{"hora":"10:00 a.m."},{"hora":"12:00 p.m."},{"hora":"2:00 p.m."},{"hora":"4:00 p.m."},{"hora":"6:00 p.m."},{"hora":"8:00 p.m."}]},{"id":3171832,"funciones":[{"hora":"8:00 a.m."},{"hora":"10:00 a.m."},{"hora":"12:00 p.m."},{"hora":"2:00 p.m."},{"hora":"4:00 p.m."},{"hora":"6:00 p.m."}]}]}},
{"teatros":"Royal Films San Martín","teatro":{"peliculas":[{"id":5155780,"funciones":[{"hora":"8:00 a.m."},{"hora":"10:00 a.m."},{"hora":"12:00 p.m."},{"hora":"2:00 p.m."}]},{"id":2763304,"funciones":[{"hora":"8:00 a.m."},{"hora":"10:00 a.m."},{"hora":"12:00 p.m."},{"hora":"2:00 p.m."},{"hora":"4:00 p.m."}]},{"id":3171832,"funciones":[{"hora":"8:00 a.m."},{"hora":"10:00 a.m."},{"hora":"12:00 p.m."},{"hora":"2:00 p.m."},{"hora":"4:00 p.m."},{"hora":"6:00 p.m."}]},{"id":5982852,"funciones":[{"hora":"8:00 a.m."},{"hora":"10:00 a.m."},{"hora":"12:00 p.m."},{"hora":"2:00 p.m."},{"hora":"4:00 p.m."},{"hora":"6:00 p.m."},{"hora":"8:00 p.m."},{"hora":"10:00 p.m."}]},{"id":4116284,"funciones":[{"hora":"8:00 a.m."},{"hora":"10:00 a.m."},{"hora":"12:00 p.m."},{"hora":"2:00 p.m."},{"hora":"4:00 p.m."},{"hora":"6:00 p.m."},{"hora":"8:00 p.m."},{"hora":"10:00 p.m."}]},{"id":5052448,"funciones":[{"hora":"8:00 a.m."},{"hora":"10:00 a.m."},{"hora":"12:00 p.m."},{"hora":"2:00 p.m."},{"hora":"4:00 p.m."},{"hora":"6:00 p.m."},{"hora":"8:00 p.m."},{"hora":"10:00 p.m."}]},{"id":5442430,"funciones":[{"hora":"8:00 a.m."},{"hora":"10:00 a.m."},{"hora":"12:00 p.m."},{"hora":"2:00 p.m."},{"hora":"4:00 p.m."}]},{"id":1753383,"funciones":[{"hora":"8:00 a.m."},{"hora":"10:00 a.m."},{"hora":"12:00 p.m."},{"hora":"2:00 p.m."},{"hora":"4:00 p.m."},{"hora":"6:00 p.m."},{"hora":"8:00 p.m."}]}]}}]